<svg viewBox="0 0 24 26" fill="none" xmlns="http://www.w3.org/2000/svg">
<path d="M22.6154 0H1.38462C0.619913 0 0 0.619913 0 1.38462V24.4615C0 25.2262 0.619913 25.8462 1.38462 25.8462H22.6154C23.3801 25.8462 24 25.2262 24 24.4615V1.38462C24 0.619913 23.3801 0 22.6154 0Z" fill="#455A64"/>
<path d="M21.6923 1.84619H2.30773C2.05283 1.84619 1.84619 2.05283 1.84619 2.30773V6.92311C1.84619 7.17801 2.05283 7.38465 2.30773 7.38465H21.6923C21.9472 7.38465 22.1539 7.17801 22.1539 6.92311V2.30773C22.1539 2.05283 21.9472 1.84619 21.6923 1.84619Z" fill="#81D4FA"/>
<path d="M5.07696 9.23071H2.30773C2.05283 9.23071 1.84619 9.43735 1.84619 9.69225V12.4615C1.84619 12.7164 2.05283 12.923 2.30773 12.923H5.07696C5.33186 12.923 5.5385 12.7164 5.5385 12.4615V9.69225C5.5385 9.43735 5.33186 9.23071 5.07696 9.23071Z" fill="#F5F5F5"/>
<path d="M10.6155 9.23071H7.8463C7.5914 9.23071 7.38477 9.43735 7.38477 9.69225V12.4615C7.38477 12.7164 7.5914 12.923 7.8463 12.923H10.6155C10.8704 12.923 11.0771 12.7164 11.0771 12.4615V9.69225C11.0771 9.43735 10.8704 9.23071 10.6155 9.23071Z" fill="#F5F5F5"/>
<path d="M16.1536 9.23071H13.3844C13.1295 9.23071 12.9229 9.43735 12.9229 9.69225V12.4615C12.9229 12.7164 13.1295 12.923 13.3844 12.923H16.1536C16.4085 12.923 16.6152 12.7164 16.6152 12.4615V9.69225C16.6152 9.43735 16.4085 9.23071 16.1536 9.23071Z" fill="#F5F5F5"/>
<path d="M21.6922 9.23071H18.923C18.6681 9.23071 18.4614 9.43735 18.4614 9.69225V12.4615C18.4614 12.7164 18.6681 12.923 18.923 12.923H21.6922C21.9471 12.923 22.1537 12.7164 22.1537 12.4615V9.69225C22.1537 9.43735 21.9471 9.23071 21.6922 9.23071Z" fill="#F44336"/>
<path d="M10.6155 14.7693H7.8463C7.5914 14.7693 7.38477 14.9759 7.38477 15.2308V18.0001C7.38477 18.255 7.5914 18.4616 7.8463 18.4616H10.6155C10.8704 18.4616 11.0771 18.255 11.0771 18.0001V15.2308C11.0771 14.9759 10.8704 14.7693 10.6155 14.7693Z" fill="#F5F5F5"/>
<path d="M16.1536 14.7693H13.3844C13.1295 14.7693 12.9229 14.9759 12.9229 15.2308V18.0001C12.9229 18.255 13.1295 18.4616 13.3844 18.4616H16.1536C16.4085 18.4616 16.6152 18.255 16.6152 18.0001V15.2308C16.6152 14.9759 16.4085 14.7693 16.1536 14.7693Z" fill="#F5F5F5"/>
<path d="M21.6922 14.7693H18.923C18.6681 14.7693 18.4614 14.9759 18.4614 15.2308V23.5385C18.4614 23.7934 18.6681 24.0001 18.923 24.0001H21.6922C21.9471 24.0001 22.1537 23.7934 22.1537 23.5385V15.2308C22.1537 14.9759 21.9471 14.7693 21.6922 14.7693Z" fill="#F5F5F5"/>
<path d="M10.6155 20.3079H7.8463C7.5914 20.3079 7.38477 20.5145 7.38477 20.7694V23.5386C7.38477 23.7935 7.5914 24.0002 7.8463 24.0002H10.6155C10.8704 24.0002 11.0771 23.7935 11.0771 23.5386V20.7694C11.0771 20.5145 10.8704 20.3079 10.6155 20.3079Z" fill="#F5F5F5"/>
<path d="M5.07696 14.7695H2.30773C2.05283 14.7695 1.84619 14.9762 1.84619 15.2311V18.0003C1.84619 18.2552 2.05283 18.4618 2.30773 18.4618H5.07696C5.33186 18.4618 5.5385 18.2552 5.5385 18.0003V15.2311C5.5385 14.9762 5.33186 14.7695 5.07696 14.7695Z" fill="#F5F5F5"/>
<path d="M5.07696 20.3079H2.30773C2.05283 20.3079 1.84619 20.5145 1.84619 20.7694V23.5386C1.84619 23.7935 2.05283 24.0002 2.30773 24.0002H5.07696C5.33186 24.0002 5.5385 23.7935 5.5385 23.5386V20.7694C5.5385 20.5145 5.33186 20.3079 5.07696 20.3079Z" fill="#F5F5F5"/>
<path d="M16.1536 20.3079H13.3844C13.1295 20.3079 12.9229 20.5145 12.9229 20.7694V23.5386C12.9229 23.7935 13.1295 24.0002 13.3844 24.0002H16.1536C16.4085 24.0002 16.6152 23.7935 16.6152 23.5386V20.7694C16.6152 20.5145 16.4085 20.3079 16.1536 20.3079Z" fill="#F5F5F5"/>
<path d="M15.8402 1.84619L13.7633 7.38465H10.0063L12.0833 1.84619H15.8402Z" fill="#B3E5FC"/>
<path d="M19.5326 1.84619L17.4557 7.38465H15.5449L17.6218 1.84619H19.5326Z" fill="#B3E5FC"/>
</svg>
