<svg width="257" height="223" viewBox="0 0 257 223" fill="none" xmlns="http://www.w3.org/2000/svg">
<path d="M77.8768 141.732L31.2257 222.524H69.9695L97.2444 175.281H159.703L186.975 222.524H225.72L179.073 141.732H77.8768Z" fill="white"/>
<path d="M256.946 182.13L179.069 47.2426H132.422L113.055 80.796H159.702L159.955 81.2368L237.58 215.675L256.946 182.13Z" fill="white"/>
<path d="M171.167 128.038L151.793 94.4892H89.3326L124.519 33.5494H171.167L151.797 7.62939e-05H105.147L23.5735 141.291L1.14441e-05 182.13L19.3672 215.675L69.9695 128.038H171.167Z" fill="white"/>
</svg>
