<svg width="38" height="37" viewBox="0 0 38 37" fill="none" xmlns="http://www.w3.org/2000/svg">
<path d="M5.1091 2.55176L0.0445699 23.2845C-0.0569843 23.6566 0.0170716 24.0548 0.245641 24.3655C0.474211 24.6762 0.832236 24.8655 1.21773 24.8793H6.38497L5.1091 2.55176Z" fill="#F29C1F"/>
<path d="M7.66073 27.4311H6.38487C5.6811 27.429 5.11111 26.859 5.10901 26.1552V2.55176H33.178C33.8817 2.55386 34.4517 3.12385 34.4538 3.82762V18.5L7.66073 27.4311Z" fill="#F0C419"/>
<path d="M35.7296 18.5H8.93651C8.23187 18.5 7.66064 19.0712 7.66064 19.7759V35.7241C7.66064 36.4288 8.23187 37 8.93651 37H35.7296C36.4342 37 37.0055 36.4288 37.0055 35.7241V19.7759C37.0055 19.0712 36.4342 18.5 35.7296 18.5Z" fill="#26B99A"/>
<path d="M10.2125 14.6724C11.2695 14.6724 12.1263 13.8156 12.1263 12.7586C12.1263 11.7017 11.2695 10.8448 10.2125 10.8448C9.15554 10.8448 8.29871 11.7017 8.29871 12.7586C8.29871 13.8156 9.15554 14.6724 10.2125 14.6724Z" fill="#F29C1F"/>
<path d="M16.5918 14.6724C17.6487 14.6724 18.5056 13.8156 18.5056 12.7586C18.5056 11.7017 17.6487 10.8448 16.5918 10.8448C15.5348 10.8448 14.678 11.7017 14.678 12.7586C14.678 13.8156 15.5348 14.6724 16.5918 14.6724Z" fill="#F29C1F"/>
<path d="M29.3503 14.6724C30.4073 14.6724 31.2641 13.8156 31.2641 12.7586C31.2641 11.7017 30.4073 10.8448 29.3503 10.8448C28.2934 10.8448 27.4365 11.7017 27.4365 12.7586C27.4365 13.8156 28.2934 14.6724 29.3503 14.6724Z" fill="#F29C1F"/>
<path d="M22.3332 15.3103C22.164 15.3103 22.0018 15.243 21.8822 15.1234L21.2443 14.4855C21.0025 14.2352 21.006 13.8373 21.252 13.5912C21.4981 13.3451 21.896 13.3417 22.1463 13.5834L22.2343 13.6715L24.3542 10.4907C24.4807 10.3011 24.6987 10.1934 24.9262 10.2081C25.1536 10.2229 25.356 10.3578 25.4569 10.5622C25.5579 10.7665 25.5422 11.0092 25.4157 11.1989L22.864 15.0264C22.7588 15.1863 22.5874 15.2905 22.397 15.3103C22.3747 15.3103 22.3543 15.3103 22.3332 15.3103V15.3103Z" fill="#4FBA6F"/>
<path d="M22.9712 27.4949V23.7209C23.7331 23.9902 24.2437 24.7092 24.247 25.5173C24.247 25.8696 24.5326 26.1552 24.885 26.1552C25.2373 26.1552 25.5229 25.8696 25.5229 25.5173C25.521 24.0021 24.4553 22.6966 22.9712 22.3914V21.6897C22.9712 21.3374 22.6856 21.0518 22.3332 21.0518C21.9809 21.0518 21.6953 21.3374 21.6953 21.6897V22.3914C20.2087 22.6933 19.1404 24.0004 19.1404 25.5173C19.1404 27.0342 20.2087 28.3413 21.6953 28.6431V32.4178C20.9332 32.1483 20.4225 31.4291 20.4194 30.6207C20.4194 30.2684 20.1338 29.9828 19.7815 29.9828C19.4292 29.9828 19.1436 30.2684 19.1436 30.6207C19.1455 32.1359 20.2112 33.4414 21.6953 33.7466V34.4483C21.6953 34.8006 21.9809 35.0862 22.3332 35.0862C22.6856 35.0862 22.9712 34.8006 22.9712 34.4483V33.7466C24.4578 33.4447 25.5261 32.1376 25.5261 30.6207C25.5261 29.1038 24.4578 27.7967 22.9712 27.4949ZM20.4194 25.5173C20.4228 24.7092 20.9334 23.9902 21.6953 23.7209V27.3137C20.9334 27.0443 20.4228 26.3254 20.4194 25.5173V25.5173ZM22.9712 32.4171V28.8243C23.7355 29.0906 24.2476 29.8113 24.2476 30.6207C24.2476 31.4301 23.7355 32.1509 22.9712 32.4171V32.4171Z" fill="#ECF0F1"/>
<path d="M13.4021 29.3448C14.459 29.3448 15.3159 28.488 15.3159 27.431C15.3159 26.374 14.459 25.5172 13.4021 25.5172C12.3451 25.5172 11.4883 26.374 11.4883 27.431C11.4883 28.488 12.3451 29.3448 13.4021 29.3448Z" fill="#81CCB8"/>
<path d="M31.2641 29.3448C32.3211 29.3448 33.1779 28.488 33.1779 27.431C33.1779 26.374 32.3211 25.5172 31.2641 25.5172C30.2072 25.5172 29.3503 26.374 29.3503 27.431C29.3503 28.488 30.2072 29.3448 31.2641 29.3448Z" fill="#81CCB8"/>
<path d="M34.4538 3.82762V7.65521H5.10901V2.55176H33.178C33.8817 2.55386 34.4517 3.12385 34.4538 3.82762Z" fill="#E64C3C"/>
<path d="M37.0055 31.8965V35.7241C37.0034 36.4278 36.4335 36.9978 35.7297 36.9999H31.9021C31.9021 35.6464 32.4398 34.3483 33.3969 33.3913C34.3539 32.4342 35.652 31.8965 37.0055 31.8965Z" fill="#14A085"/>
<path d="M12.7645 18.5C12.7645 21.3186 10.4796 23.6034 7.66101 23.6034V19.7759C7.66311 19.0721 8.23311 18.5021 8.93687 18.5H12.7645Z" fill="#14A085"/>
<path d="M12.7641 36.9999H8.93651C8.23274 36.9978 7.66275 36.4278 7.66064 35.7241V31.8965C9.01416 31.8965 10.3122 32.4342 11.2693 33.3913C12.2264 34.3483 12.7641 35.6464 12.7641 36.9999V36.9999Z" fill="#14A085"/>
<path d="M37.0055 19.7759V23.6034C34.187 23.6034 31.9021 21.3186 31.9021 18.5H35.7297C36.4335 18.5021 37.0034 19.0721 37.0055 19.7759Z" fill="#14A085"/>
<path d="M31.9021 1.27586C31.9021 0.571223 31.3308 0 30.6262 0C29.9216 0 29.3503 0.571223 29.3503 1.27586V3.82759C29.3503 4.53223 29.9216 5.10345 30.6262 5.10345C31.3308 5.10345 31.9021 4.53223 31.9021 3.82759V1.27586Z" fill="#95A5A5"/>
<path d="M24.8849 1.27586C24.8849 0.571223 24.3136 0 23.609 0C22.9044 0 22.3331 0.571223 22.3331 1.27586V3.82759C22.3331 4.53223 22.9044 5.10345 23.609 5.10345C24.3136 5.10345 24.8849 4.53223 24.8849 3.82759V1.27586Z" fill="#95A5A5"/>
<path d="M17.8676 1.27586C17.8676 0.571223 17.2964 0 16.5918 0C15.8871 0 15.3159 0.571223 15.3159 1.27586V3.82759C15.3159 4.53223 15.8871 5.10345 16.5918 5.10345C17.2964 5.10345 17.8676 4.53223 17.8676 3.82759V1.27586Z" fill="#95A5A5"/>
<path d="M10.8504 1.27586C10.8504 0.571223 10.2792 0 9.57457 0C8.86993 0 8.29871 0.571223 8.29871 1.27586V3.82759C8.29871 4.53223 8.86993 5.10345 9.57457 5.10345C10.2792 5.10345 10.8504 4.53223 10.8504 3.82759V1.27586Z" fill="#95A5A5"/>
</svg>
