<svg width="20" height="20" viewBox="0 0 20 20" fill="none" xmlns="http://www.w3.org/2000/svg">
<path d="M18.3593 14.4922C18.7908 14.4922 19.1406 14.1424 19.1406 13.7109V10.1172C19.1406 8.82483 18.0892 7.77342 16.7968 7.77342H15.2734V4.68749C15.2734 2.96437 13.8715 1.5625 12.1484 1.5625H10.2917C9.98936 0.634803 9.1251 0 8.13698 0H7.13643C6.14831 0 5.28405 0.634803 4.98175 1.5625H3.12499C1.40187 1.5625 0 2.96437 0 4.68749V16.875C0 18.5981 1.40187 20 3.12499 20H6.56249C6.99397 20 7.34374 19.6502 7.34374 19.2187C7.34374 18.7872 6.99397 18.4375 6.56249 18.4375H3.12499C2.26343 18.4375 1.5625 17.7365 1.5625 16.875V4.68749C1.5625 3.82593 2.26343 3.12499 3.12499 3.12499H3.20312V5.42968C3.20312 5.86116 3.55288 6.21093 3.98437 6.21093H11.3672C11.7986 6.21093 12.1484 5.86116 12.1484 5.42968V3.12499C13.01 3.12499 13.7109 3.82593 13.7109 4.68749V7.77342H11.1716C9.87943 7.77342 8.82811 8.82471 8.82811 10.1169V17.6565C8.82811 18.9487 9.87951 20 11.1722 20L16.7968 19.9971C18.0892 19.9971 19.1406 18.9458 19.1406 17.6536C19.1406 17.2222 18.7908 16.8724 18.3593 16.8724C17.9279 16.8724 17.5781 17.2222 17.5781 17.6536C17.5781 18.0843 17.2276 18.4346 16.7965 18.4346L11.1719 18.4375C10.7411 18.4375 10.3906 18.0871 10.3906 17.6565V10.1169C10.3906 9.68627 10.741 9.33592 11.1716 9.33592H16.7968C17.2276 9.33592 17.5781 9.68639 17.5781 10.1172V13.7109C17.5781 14.1424 17.9279 14.4922 18.3593 14.4922ZM10.5859 4.64843H4.76562V3.12499H5.58593C5.9444 3.12499 6.2569 2.88101 6.34386 2.53324L6.45315 2.09597C6.53167 1.78187 6.81264 1.5625 7.13643 1.5625H8.13698C8.46077 1.5625 8.7417 1.78187 8.82026 2.09597L8.92955 2.53324C9.01651 2.88101 9.32901 3.12499 9.68748 3.12499H10.5859V4.64843Z" fill="white"/>
<path d="M15.2343 10.8984H12.7343C12.3028 10.8984 11.953 11.2482 11.953 11.6797C11.953 12.1111 12.3028 12.4609 12.7343 12.4609H15.2343C15.6658 12.4609 16.0155 12.1111 16.0155 11.6797C16.0155 11.2482 15.6658 10.8984 15.2343 10.8984Z" fill="white"/>
<path d="M15.2343 13.6328H12.7343C12.3028 13.6328 11.953 13.9826 11.953 14.414C11.953 14.8455 12.3028 15.1953 12.7343 15.1953H15.2343C15.6658 15.1953 16.0155 14.8455 16.0155 14.414C16.0155 13.9826 15.6658 13.6328 15.2343 13.6328Z" fill="white"/>
</svg>
