<svg width="43" height="35" viewBox="0 0 43 35" fill="none" xmlns="http://www.w3.org/2000/svg">
<path fill-rule="evenodd" clip-rule="evenodd" d="M36.9557 13.4715C37.3284 13.9567 37.47 14.82 37.3045 15.2877C37.1696 15.6701 36.8151 15.7406 36.5178 15.8664C35.7067 16.2101 33.751 16.7821 32.8763 16.9356C32.5241 16.9973 32.3155 17.0611 31.9216 16.6696C31.4563 16.207 31.2087 15.3518 31.5175 14.8632C31.7091 14.5599 32.1268 14.4963 32.3956 14.4119L36.03 13.2568C36.41 13.1298 36.58 12.9818 36.9557 13.4715V13.4715ZM36.2104 10.7571C36.7261 11.3434 36.6721 11.9445 36.5217 12.5788C36.4349 12.9437 36.2932 12.9203 35.7731 13.1243C35.4768 13.2406 35.1689 13.3434 34.867 13.4485L32.14 14.2952C31.8325 14.3817 31.5428 14.5309 31.1937 14.2645C30.6403 13.8417 30.4231 12.9167 30.7739 12.44C30.9534 12.1958 30.9971 12.217 31.2221 12.1335C31.3826 12.0742 31.5089 12.0299 31.6758 11.9661C32.467 11.6633 33.704 11.2666 34.3843 10.8967C34.5461 10.8088 34.678 10.7272 34.8267 10.611C34.9292 10.5307 35.1671 10.247 35.2626 10.2351C35.4505 10.2116 36.048 10.572 36.2104 10.7571V10.7571ZM36.9126 16.0735C37.5873 16.9169 37.4389 17.5046 37.0856 18.3519C36.9792 18.6066 36.8132 18.5758 36.4078 18.6565C35.9125 18.7556 33.7174 19.098 33.3369 18.9331C32.7363 18.6721 32.5778 17.91 32.6048 17.5458C32.6327 17.1735 32.8892 17.1449 33.1569 17.0594C34.2533 16.7089 35.465 16.4082 36.5587 16.0648C36.6992 16.0207 36.7989 15.9315 36.9126 16.0735V16.0735ZM34.8525 10.347C34.8564 10.0698 34.981 9.67207 34.7304 9.40676C34.4425 9.10229 34.1805 8.82858 33.8809 8.52667L33.9274 8.28471C33.679 8.13831 33.7244 8.45889 33.3814 8.12069C33.165 7.90704 32.8405 7.68333 32.6221 7.46842C32.7621 7.39074 33.6917 7.50179 33.8322 7.51899C34.2034 7.56477 34.7063 7.51576 35.0154 7.91736C35.2699 8.24847 35.4961 8.75997 35.544 9.07752C35.5964 9.42235 35.2287 10.0426 34.8525 10.347V10.347ZM30.2797 10.4826C30.7653 10.9132 30.8425 10.9709 31.4868 11.1843C32.0195 11.3609 32.4185 11.2961 32.7212 11.3802C32.5521 11.5089 31.052 12.0359 30.8951 12.0382C30.3797 12.0452 30.0295 10.8561 30.2797 10.4826V10.4826ZM27.9536 1.11903e-06L13.4458 8.37615V19.4284L10.8051 21.133L11.289 18.6061L0 28.3364L9.56875 22.4766L9.19243 24.1971C13.7642 21.6753 18.937 19.0815 23.3249 16.3241C24.4165 15.6382 24.32 15.3838 24.6 14.3612C24.7982 13.6382 24.9609 12.922 25.1737 12.2021C25.3884 11.475 25.546 10.7493 25.8985 10.0058C26.1427 9.49075 26.318 9.40243 26.7435 9.05245C27.6204 8.33053 28.8588 7.34705 29.7388 6.71111C30.6479 6.05426 30.959 6.31337 31.8773 7.07866C32.5963 7.67801 33.3623 8.37109 34.0103 9.03707C34.37 9.40692 34.689 9.62839 34.6509 10.0346C34.5153 11.4809 31.4338 11.6286 30.2109 10.0612C30.0692 9.87968 30.0194 9.73422 29.904 9.57041C29.8407 9.75914 29.9135 10.0429 30.0071 10.2449C29.8046 10.4682 29.3012 10.5088 29.0629 10.3779C29.4521 10.6827 29.9012 10.5523 30.0053 10.5894C29.8939 10.8327 29.829 10.8931 29.82 11.1509C29.8138 11.3149 29.8338 11.5037 29.8374 11.6651C29.8659 12.1863 29.8945 12.7077 29.9231 13.2288C29.9734 14.5519 30.2103 15.8407 28.9157 16.8508C28.4839 17.1875 27.929 17.3873 27.4222 17.4839C27.2144 17.5235 26.7542 17.5798 26.6105 17.6173C26.6024 17.6194 27.4516 17.589 27.7941 17.5241C28.7289 17.3464 29.7069 16.9912 30.1672 15.9401C30.1924 16.4836 31.4047 17.6541 32.019 17.9386C31.9129 18.4068 31.8068 18.8754 31.7009 19.3441C32.0459 18.9435 32.0932 18.528 32.2844 18.1374C32.5756 18.494 32.7358 18.9994 33.235 19.1767C33.5449 19.2864 34.139 19.189 34.43 19.168C34.6682 19.474 34.9146 19.9419 35.287 20.1908C35.0781 19.9831 34.6458 19.4421 34.6974 19.1095C34.8373 19.0625 35.0652 19.0417 35.2111 19.0224C35.7218 18.9477 36.2322 18.8732 36.7429 18.7981C36.5632 18.9936 36.3587 19.1582 36.1695 19.3281C35.9475 19.5273 35.8999 19.7086 35.7901 19.9551C35.4164 20.7961 35.4203 20.5934 34.8063 20.6517C34.6004 20.6712 33.8949 21.0918 33.6267 21.2256C31.8941 22.0896 30.7602 22.4061 28.9274 22.8517C28.5534 22.943 28.0365 23.0018 27.7509 23.1794C21.6987 26.9415 15.6738 31.146 9.57365 35L19.9013 30.6146L19.2758 32.2606L23.2429 30.7849L27.9536 33.5046L42.462 25.1286V8.37615L27.9536 1.11903e-06Z" fill="#CD2225"/>
<path fill-rule="evenodd" clip-rule="evenodd" d="M12.2354 24.7437L23.6352 18.1881C23.8264 17.6227 24.0177 17.0572 24.2092 16.492C24.3038 18.9477 25.034 20.2488 26.2519 21.1957C25.8172 20.8583 25.6063 21.1302 24.1498 19.6851L2.66663 31.302L22.046 19.9862L12.2354 24.7437Z" fill="#CD2225"/>
</svg>
