<svg width="490" height="90" viewBox="0 0 490 90" fill="none" xmlns="http://www.w3.org/2000/svg">
<path d="M49.014 33.8894C58.5332 33.8894 68.0587 33.8894 77.5778 33.8894C77.9983 33.8894 78.061 33.9521 78.0736 34.3787C78.0798 34.4916 78.0736 34.6108 78.0736 34.7237C78.0736 41.5745 78.0736 48.4315 78.0736 55.2822C78.0736 56.0412 78.0736 56.0412 77.308 56.0412C58.3951 56.0412 39.4823 56.0412 20.5632 56.0412C20.5255 56.0412 20.4879 56.0412 20.4502 56.0412C19.9357 56.0538 19.8039 56.1793 19.8039 56.6812C19.7976 57.4653 19.8101 58.2495 19.8039 59.04C19.8039 59.5294 19.7913 60.0187 19.7788 60.508C19.7662 61.0099 19.9169 61.2107 20.4126 61.3236C20.5381 61.355 20.6699 61.3738 20.7954 61.3738C22.2135 61.3612 23.6254 61.3299 25.0435 61.3299C40.8879 61.3236 56.7386 61.3299 72.5829 61.3299C74.0764 61.3299 75.5698 61.3236 77.0633 61.3236C77.239 61.3236 77.421 61.355 77.5967 61.3926C77.9355 61.4616 78.0234 61.5557 78.061 61.907C78.0736 62.0199 78.0736 62.1392 78.0736 62.2521C78.0736 63.7452 78.0485 65.2383 78.0861 66.7314C78.1049 67.3901 77.7347 67.7728 77.1511 67.961C77.1135 67.9735 77.0696 67.9735 77.0382 67.9924C76.5927 68.2621 76.1534 68.5382 75.7079 68.8079C75.5573 68.8958 75.4004 69.0025 75.2372 69.0338C75.0113 69.084 74.8231 69.1655 74.6851 69.3537C74.5533 69.5294 74.3776 69.6235 74.158 69.6298C73.9634 69.6361 73.8191 69.7301 73.7062 69.887C73.6622 69.9498 73.612 70.0188 73.5493 70.0564C73.1289 70.2947 72.7021 70.5206 72.2754 70.7464C72.2441 70.7653 72.1939 70.759 72.1688 70.7841C71.786 71.148 71.2589 71.2985 70.851 71.6185C70.8134 71.6498 70.782 71.7 70.7381 71.7188C70.28 71.9698 69.8157 72.2082 69.3576 72.4591C68.9121 72.7038 68.4728 72.9548 68.021 73.1995C67.7574 73.3437 67.5441 73.5633 67.2241 73.6261C67.1049 73.6512 66.9856 73.7766 66.8978 73.8832C66.7535 74.0463 66.5903 74.153 66.3707 74.1781C66.1573 74.2032 65.9816 74.2973 65.8373 74.4541C65.7746 74.5169 65.7056 74.5984 65.6239 74.6173C65.1471 74.7302 64.7894 75.0627 64.369 75.276C64.2246 75.3512 64.0866 75.4517 63.9674 75.5708C63.8168 75.7214 63.6599 75.8406 63.4403 75.8531C63.2332 75.8657 63.0763 75.9661 62.9445 76.1229C62.8943 76.1794 62.8441 76.2484 62.7814 76.286C62.3484 76.5181 61.9029 76.7502 61.4636 76.9761C61.4323 76.9949 61.3883 76.9887 61.3569 77.0137C60.9302 77.2835 60.491 77.547 60.0769 77.8419C59.8949 77.9736 59.738 78.1053 59.5121 78.1492C59.4242 78.168 59.3301 78.1869 59.2549 78.2308C58.8469 78.4946 58.4453 78.7643 58.0437 79.034C57.9496 79.0968 57.8492 79.172 57.7426 79.1971C57.4288 79.2598 57.1966 79.4606 56.9457 79.6362C56.5378 79.9185 56.0797 80.1317 55.6404 80.3764C55.4522 80.483 55.2827 80.621 55.0819 80.7088C54.5737 80.9409 54.1344 81.2984 53.6074 81.4991C53.5383 81.5242 53.4317 81.5242 53.394 81.5744C53.0426 82.026 52.4528 82.1138 52.0261 82.4714C51.6558 82.7858 51.1663 82.9614 50.7334 83.1998C50.6895 83.2248 50.6267 83.2248 50.589 83.2499C50.1435 83.5259 49.7043 83.8019 49.2587 84.0716C49.0893 84.1783 48.9073 84.2723 48.7254 84.3602C48.6312 84.4041 48.4932 84.3978 48.443 84.4668C48.1229 84.8808 47.6022 84.9937 47.1943 85.2759C46.8303 85.5331 46.4162 85.7401 46.0209 85.9596C45.7196 86.1227 45.3997 86.2294 45.1549 86.4928C45.0733 86.5806 44.929 86.5994 44.8098 86.6433C44.6906 86.6873 44.5337 86.6998 44.4584 86.7813C44.2136 87.0322 43.8623 87.1075 43.6238 87.3027C43.2034 87.654 42.6763 87.7983 42.237 88.1244C41.8668 88.3941 41.4213 88.5886 41.0197 88.8332C40.775 88.9838 40.5052 89.0904 40.2604 89.2723C39.978 89.4856 39.6455 89.6361 39.3255 89.7992C39.1372 89.8995 38.9427 89.8494 38.7733 89.7365C38.4156 89.4918 37.9638 89.3852 37.6939 89.0089C37.6437 88.9461 37.5433 88.921 37.4618 88.8771C37.2359 88.758 37.01 88.6388 36.7903 88.5196C36.2946 88.2561 35.7926 87.999 35.3094 87.7167C34.9016 87.4846 34.5439 87.171 34.067 87.0573C33.9917 87.0385 33.9415 86.9256 33.8662 86.8817C33.7156 86.7876 33.5713 86.6747 33.4081 86.6308C33.1885 86.5681 33.0128 86.474 32.8559 86.3046C32.743 86.1792 32.561 86.1164 32.4104 86.0286C32.2347 85.9283 32.059 85.8279 31.877 85.7464C31.3562 85.508 30.9295 85.1129 30.3836 84.9184C30.2455 84.8682 30.0949 84.793 29.9945 84.6863C29.8188 84.5044 29.6368 84.3602 29.3795 84.31C29.367 84.31 29.3544 84.3037 29.3419 84.2974C28.9403 83.9775 28.4697 83.7768 28.0305 83.5259C28.0116 83.5134 27.9927 83.482 27.9739 83.4757C27.4217 83.275 27.0201 82.8109 26.4429 82.6478C26.3048 82.6101 26.1667 82.509 26.0664 82.3961C25.897 82.2016 25.7087 82.0887 25.4514 82.0386C25.2883 82.0072 25.1439 81.8755 24.9933 81.7877C24.8302 81.6873 24.6733 81.5869 24.5102 81.4929C24.0458 81.2231 23.5815 80.966 23.1171 80.6962C22.9414 80.5959 22.7657 80.4893 22.59 80.3889C22.0754 80.0815 21.5609 79.7742 21.0526 79.4731C21.0213 79.4543 20.9962 79.4104 20.9647 79.3978C20.4942 79.2598 20.1114 78.9462 19.6847 78.7204C19.6596 78.7079 19.6345 78.7079 19.6156 78.6953C19.1889 78.35 18.687 78.1304 18.2288 77.8293C18.1849 77.8042 18.1598 77.7541 18.1159 77.7289C17.6704 77.4843 17.2186 77.2458 16.7731 77.0075C16.6036 76.9197 16.4468 76.813 16.2773 76.7251C16.1142 76.6311 15.9573 76.5119 15.7754 76.4617C15.5683 76.4052 15.3926 76.3173 15.2671 76.1417C15.1416 75.9661 14.9722 75.8594 14.7588 75.8217C14.7086 75.8155 14.6521 75.8029 14.6082 75.7778C14.1878 75.5332 13.7737 75.2822 13.3532 75.0376C13.1901 74.9434 13.0332 74.8243 12.8512 74.7678C12.6316 74.6988 12.4559 74.5984 12.299 74.4353C12.2049 74.3349 12.0794 74.2346 11.9539 74.2032C11.6778 74.1405 11.4519 74.015 11.2699 73.7954C11.2448 73.7641 11.2197 73.739 11.182 73.7202C10.7303 73.488 10.2659 73.2747 9.82662 73.0175C9.32467 72.7164 8.785 72.4842 8.30179 72.158C8.05081 71.9886 7.73707 71.9008 7.51117 71.7126C7.279 71.5181 7.0782 71.311 6.76445 71.2797C6.7268 71.2734 6.68287 71.2671 6.6515 71.2483C6.28128 70.9974 5.90478 70.759 5.55338 70.483C5.39022 70.3512 5.2459 70.2132 5.02 70.2069C4.78782 70.2007 4.59958 70.094 4.45525 69.9183C4.3172 69.749 4.13522 69.6737 3.93442 69.611C3.77127 69.5608 3.62695 69.4478 3.47635 69.3537C3.4136 69.3098 3.36967 69.222 3.30692 69.2032C2.83003 69.0652 2.45979 68.7327 2.02682 68.5256C1.55619 68.2998 1.1797 67.9296 0.671422 67.7603C0.476897 67.6913 0.326298 67.4528 0.194524 67.2647C0.106674 67.1329 0.0564766 66.9572 0.0564766 66.8004C0.0313765 65.4077 0.00627347 64.0212 0.00627347 62.6285C-1.53228e-06 50.2884 0.00627347 37.9483 0.00627347 25.6083C0.00627347 24.8491 0 24.0901 0 23.331C0 22.7099 0.213347 22.2268 0.828297 21.9821C0.947521 21.9382 1.04793 21.8441 1.1546 21.7752C1.17342 21.7626 1.19225 21.7375 1.21107 21.725C1.49345 21.5744 1.8072 21.4677 2.04565 21.2733C2.29037 21.0725 2.51 20.8718 2.8363 20.8341C2.87395 20.8279 2.92415 20.8216 2.94298 20.7965C3.27555 20.4012 3.8403 20.3636 4.19798 19.9997C4.26073 19.937 4.3423 19.8805 4.42388 19.8554C4.7188 19.755 4.95725 19.548 5.2208 19.3974C5.6224 19.1716 6.06165 19.0336 6.38168 18.6823C6.9276 18.6195 7.2539 18.0926 7.78728 17.9984C7.8751 17.9796 7.96299 17.8918 8.03199 17.8165C8.18261 17.666 8.35832 17.5844 8.55911 17.5216C8.74737 17.4652 8.93562 17.3585 9.08616 17.2331C9.24932 17.1013 9.39994 16.9884 9.60701 16.9319C9.77017 16.888 9.91452 16.7688 10.0588 16.6685C10.1341 16.6182 10.178 16.5241 10.2534 16.4802C10.6926 16.2482 11.1507 16.0536 11.5711 15.7965C12.0041 15.5392 12.4433 15.2883 12.8889 15.0499C13.1398 14.9119 13.3406 14.6797 13.6419 14.6045C13.7109 14.5856 13.7925 14.5417 13.8364 14.4853C14.0435 14.2531 14.3321 14.1778 14.5831 14.0273C14.9471 13.814 15.3172 13.6195 15.6749 13.4062C15.9824 13.218 16.2397 12.967 16.6162 12.9231C16.6538 12.9168 16.6915 12.898 16.7166 12.8667C16.9676 12.5468 17.3065 12.3836 17.6893 12.2958C17.7771 12.277 17.8461 12.1703 17.934 12.1076C18.0343 12.0323 18.1348 11.9382 18.254 11.8943C18.5364 11.7939 18.7685 11.5806 19.0258 11.4739C19.5466 11.2669 19.898 10.7902 20.4565 10.6646C20.4691 10.6646 20.4816 10.6584 20.4942 10.6521C20.8644 10.2381 21.4354 10.1502 21.8558 9.81777C21.9374 9.75496 22.019 9.67969 22.1131 9.6546C22.4206 9.56679 22.6716 9.41625 22.8975 9.18409C22.9853 9.09 23.1485 9.05864 23.2802 9.02728C23.481 8.98964 23.6442 8.9081 23.7572 8.73239C23.8764 8.55049 24.0521 8.45013 24.2654 8.41877C24.4662 8.39368 24.6294 8.29951 24.7612 8.14897C24.8113 8.09252 24.8678 8.01098 24.9306 7.99843C25.4388 7.8729 25.8342 7.52161 26.2797 7.28949C26.7503 7.04483 27.2021 6.75624 27.6728 6.51157C27.8861 6.39865 28.0806 6.25436 28.2877 6.12262C28.3755 6.06615 28.4697 6.02223 28.545 5.95323C28.7207 5.77129 28.9654 5.70856 29.1662 5.58936C29.6682 5.28823 30.2079 5.06866 30.691 4.72361C31.0926 4.4413 31.5319 4.19663 31.9586 3.95823C32.2535 3.79512 32.6049 3.75121 32.8496 3.47517C32.9124 3.40616 33.0316 3.38734 33.1258 3.34343C33.2512 3.2807 33.3893 3.23051 33.4897 3.1364C33.6654 2.97329 33.8473 2.85409 34.0796 2.78508C34.2113 2.74744 34.3243 2.64706 34.4372 2.56551C34.5 2.52159 34.5376 2.43376 34.6066 2.40867C35.1086 2.21419 35.5416 1.90051 35.9997 1.6433C36.0436 1.6182 36.1064 1.63075 36.144 1.59938C36.5519 1.27316 37.079 1.14141 37.468 0.771272C37.5873 0.652074 37.7629 0.570519 37.9324 0.526604C38.1332 0.476415 38.2963 0.407406 38.3968 0.2192C38.4156 0.187832 38.4344 0.15019 38.4658 0.125097C38.6854 -0.0819305 39.6392 -0.0191953 39.8337 0.2192C39.8964 0.294483 39.9655 0.407406 40.047 0.432501C40.411 0.526604 40.6494 0.834005 40.9569 0.978303C41.3648 1.16651 41.7413 1.3798 42.1241 1.60565C42.3437 1.7374 42.5947 1.80641 42.7767 2.00089C42.8268 2.05735 42.9022 2.10127 42.9712 2.12008C43.3038 2.21419 43.5861 2.37103 43.8183 2.63452C43.8246 2.64706 43.8372 2.65334 43.8497 2.65961C44.4081 2.74744 44.747 3.23678 45.2616 3.41244C45.3557 3.4438 45.4561 3.49399 45.5251 3.56928C45.7134 3.75748 45.9581 3.82649 46.1903 3.94569C46.617 4.15899 47.0311 4.42248 47.4453 4.66088C47.7151 4.81771 47.9222 5.07493 48.261 5.13766C48.3301 5.15021 48.4054 5.2004 48.4555 5.25686C48.6563 5.47016 48.9325 5.55172 49.1772 5.68346C49.5913 5.90931 50.0055 6.13516 50.4196 6.36101C50.6958 6.51157 50.9342 6.73115 51.2542 6.81898C51.3483 6.84407 51.4299 6.91935 51.5178 6.97581C51.7374 7.10756 51.9507 7.23931 52.1641 7.37732C52.6159 7.65963 53.0677 7.94825 53.5195 8.23051C53.6387 8.30578 53.7642 8.38105 53.896 8.41249C54.1407 8.47522 54.3415 8.58812 54.5235 8.77003C54.6364 8.88301 54.7996 8.96455 54.9502 9.00219C55.1636 9.05864 55.3141 9.159 55.4647 9.30954C55.5965 9.44134 55.7785 9.51661 55.9417 9.61069C56.1173 9.71105 56.2993 9.80522 56.475 9.89931C56.4875 9.90558 56.4938 9.91813 56.5063 9.9244C56.9582 10.1816 57.41 10.4388 57.8681 10.6961C57.8995 10.7149 57.9496 10.7086 57.9747 10.7337C58.3889 11.0724 58.8846 11.2795 59.3364 11.5618C59.4431 11.6308 59.5309 11.7437 59.6439 11.7876C59.9325 11.9005 60.2086 12.0323 60.4346 12.2519C60.4785 12.2958 60.5412 12.3271 60.6039 12.3397C60.924 12.415 61.1624 12.6409 61.4386 12.7851C61.8527 13.011 62.248 13.2556 62.6496 13.4941C62.9194 13.6509 63.1893 13.8328 63.4654 13.9646C63.892 14.1716 64.2748 14.4476 64.7015 14.6546C64.9212 14.755 65.1157 14.9182 65.3416 14.9997C65.8749 15.2004 66.308 15.5643 66.7786 15.8592C67.2618 16.1665 67.7888 16.3862 68.272 16.6999C68.7301 17.0009 69.2258 17.2394 69.7027 17.5028C69.7278 17.5154 69.7592 17.5091 69.778 17.5279C70.2173 17.8541 70.7067 18.0989 71.1899 18.356C71.2338 18.3811 71.2589 18.4376 71.3028 18.4564C71.7359 18.7011 72.1688 18.9332 72.6018 19.1779C72.7775 19.2782 72.9469 19.3911 73.1163 19.5041C73.1602 19.5292 73.1853 19.5857 73.2292 19.6108C73.6748 19.8554 74.1203 20.1001 74.5721 20.3385C74.6286 20.3699 74.7039 20.3636 74.7541 20.395C75.187 20.6584 75.62 20.9282 76.053 21.1979C76.1409 21.2544 76.2099 21.3674 76.2915 21.3799C76.8688 21.4614 77.2202 21.9759 77.7598 22.1201C77.9418 22.164 78.0234 22.3209 78.0485 22.4966C78.0736 22.6848 78.0861 22.8793 78.0861 23.0737C78.0924 24.6296 78.0861 26.1917 78.0924 27.7476C78.0924 27.7978 78.0924 27.8479 78.0924 27.9044C78.0673 28.2369 78.0046 28.3122 77.6657 28.3184C77.1762 28.331 76.6868 28.3373 76.1973 28.3373C75.0113 28.3373 73.8254 28.3247 72.6394 28.3247C56.5441 28.3247 40.4549 28.3247 24.3596 28.3247C23.1611 28.3247 21.9688 28.3184 20.7702 28.3184C19.9608 28.3184 19.8165 28.4439 19.8039 29.2532C19.7913 30.257 19.8101 31.2607 19.8164 32.2645C19.8164 32.6095 19.8039 32.9609 19.7976 33.3059C19.7913 33.7639 19.9357 33.9207 20.3812 33.9207C29.9255 33.9207 39.476 33.9207 49.0203 33.9207C49.014 33.8956 49.014 33.8894 49.014 33.8894ZM46.0648 41.9195C46.0648 41.9133 46.0648 41.9132 46.0648 41.9069C37.7944 41.9069 29.5239 41.9069 21.2534 41.9069C20.8958 41.9069 20.5318 41.8944 20.1741 41.9258C19.5905 41.976 19.4085 42.2332 19.5153 42.804C19.5592 43.0425 19.6093 43.2871 19.6156 43.5255C19.622 44.4666 19.6093 45.4076 19.6031 46.3486C19.6031 46.6811 19.6031 47.0199 19.6156 47.3524C19.6282 47.6661 19.7035 47.7539 19.9984 47.779C20.4063 47.8103 20.8205 47.8417 21.2346 47.8417C22.0943 47.8417 22.9603 47.8103 23.8199 47.8103C38.6854 47.8103 53.5508 47.8103 68.4163 47.8103C69.5646 47.8103 70.7067 47.8103 71.855 47.8041C72.2441 47.8041 72.3821 47.6849 72.4574 47.2959C72.4762 47.183 72.4825 47.0638 72.4825 46.9509C72.4825 45.6147 72.4825 44.2721 72.4762 42.9358C72.4762 42.7789 72.47 42.6284 72.4511 42.4716C72.401 42.0763 72.2441 41.9321 71.8425 41.9195C71.5224 41.9069 71.1962 41.9195 70.8761 41.9195C62.6057 41.9195 54.3352 41.9195 46.0648 41.9195Z" fill="#172542"/>
<path d="M120.164 57.9455C123.978 48.7882 127.6 40.0992 131.235 31.3964C131.483 30.8043 131.565 30.0744 131.979 29.6476C132.86 28.725 133.961 27.2378 134.884 27.3066C136.027 27.3755 137.597 28.5597 138.093 29.6614C140.998 36.1471 143.656 42.7293 146.382 49.2978C148.214 53.7042 150.004 58.1245 151.849 62.531C152.758 64.7067 154.149 67.2404 151.037 68.5073C147.842 69.8017 147.222 66.786 146.341 64.7067C142.692 56.0176 139.098 47.3011 135.228 37.951C134.553 39.2592 134.085 40.0028 133.755 40.8015C130.327 49.0223 126.993 57.2845 123.428 65.4503C122.835 66.786 121.265 68.5486 120.123 68.5624C119.007 68.5761 117.396 66.8135 116.818 65.4778C112.948 56.5409 109.285 47.4938 105.333 37.9648C104.727 39.1215 104.3 39.7962 103.998 40.5123C100.555 48.7332 97.1263 56.954 93.6976 65.1748C93.4498 65.767 93.3667 66.6345 92.9261 66.8824C91.6873 67.5847 90.3097 68.0253 88.9877 68.5624C88.5197 67.2128 87.2801 65.5604 87.6799 64.5552C92.3757 52.7266 97.2917 40.9805 102.276 29.2758C102.689 28.3257 104.273 27.0863 105.044 27.2516C106.242 27.4994 107.716 28.6285 108.211 29.7578C111.833 38.0199 115.234 46.3647 118.704 54.6819C119.076 55.6045 119.517 56.5271 120.164 57.9455Z" fill="#172542"/>
<path d="M282.088 37.9923C278.673 46.1856 275.423 53.9796 272.174 61.7736C271.678 62.944 271.417 64.2797 270.672 65.2712C269.667 66.5932 268.428 68.3006 267.065 68.5485C266.197 68.7137 264.449 66.7171 263.857 65.3538C260.401 57.491 257.164 49.518 253.859 41.5864C252.51 38.3503 251.215 35.1005 249.824 31.8921C248.999 29.9643 249.012 28.2429 251.146 27.3754C253.253 26.5217 254.534 27.7197 255.332 29.6338C258.789 37.9648 262.26 46.2957 265.729 54.6268C266.129 55.5769 266.57 56.4995 267.271 58.0832C270.288 50.8675 273.041 44.2715 275.781 37.6756C276.759 35.3209 277.517 32.856 278.769 30.6527C279.554 29.262 280.959 27.6233 282.309 27.3754C283.19 27.224 284.925 29.1793 285.517 30.5289C288.918 38.309 292.072 46.1856 295.335 54.0209C295.803 55.1501 296.382 56.2241 297.222 57.9454C300.733 49.518 303.983 41.7379 307.232 33.9438C307.839 32.4704 308.472 31.0108 309.051 29.5236C309.835 27.5131 311.212 26.5355 313.278 27.4443C315.261 28.3118 315.247 30.0331 314.517 31.7681C311.571 38.9286 308.583 46.0892 305.622 53.236C304.08 56.9539 302.578 60.6995 300.954 64.3899C300.127 66.2489 299.687 69.1682 297.029 68.5761C295.555 68.2456 294.096 66.0974 293.366 64.445C289.896 56.5821 286.701 48.5954 283.383 40.6638C283.066 39.9064 282.667 39.1766 282.088 37.9923Z" fill="#172542"/>
<path d="M380.794 51.6111C387.128 55.274 393.448 58.9645 399.824 62.5722C401.793 63.6876 403.35 65.0647 402.014 67.3505C400.65 69.6915 398.654 68.8102 396.767 67.7085C388.973 63.1781 381.151 58.689 372.697 53.8144C372.697 55.5356 372.71 56.7474 372.697 57.9454C372.642 60.6995 372.835 63.5086 372.366 66.1938C372.187 67.199 370.494 68.5072 369.405 68.5899C368.593 68.6587 366.885 67.0063 366.858 66.0836C366.638 59.9284 366.624 53.7593 366.817 47.604C366.885 45.3181 368.868 44.9463 370.824 44.9463C377.406 44.9601 384.002 45.0152 390.584 44.905C393.779 44.85 395.927 42.9221 396.464 40.0717C396.988 37.3314 395.638 34.5911 393.063 33.5583C392.016 33.1452 390.805 33.035 389.661 33.0212C383.507 32.9662 377.338 32.9799 371.168 33.0075C368.979 33.0212 366.858 32.7459 366.789 30.0469C366.721 27.3203 368.882 26.8935 371.031 26.8935C378.039 26.9348 385.062 26.7833 392.058 27.1689C397.373 27.4718 401.642 31.8921 402.344 36.9321C403.143 42.6467 400.471 47.783 395.293 49.8761C393.572 50.5646 391.589 50.7849 389.716 50.8951C386.784 51.0603 383.837 50.9364 380.904 50.9364C380.849 51.1705 380.821 51.3908 380.794 51.6111Z" fill="#172542"/>
<path d="M246.355 48.2237C246.286 59.832 237.046 68.8653 225.3 68.8102C213.76 68.7551 204.589 59.4464 204.63 47.7967C204.672 36.0507 213.994 26.9761 225.892 27.0863C237.514 27.1964 246.423 36.395 246.355 48.2237ZM225.396 62.8201C233.837 62.8752 240.392 56.4307 240.434 48.0447C240.488 39.6723 233.947 33.0351 225.631 32.9938C217.189 32.9662 210.648 39.4107 210.607 47.7967C210.593 56.2792 216.969 62.7651 225.396 62.8201Z" fill="#172542"/>
<path d="M460.097 62.7925C463.993 62.7925 467.285 62.9715 470.562 62.7512C478.19 62.2555 484.057 55.5219 483.947 47.6178C483.836 39.8237 477.64 33.2829 469.956 33.0212C466.031 32.8835 462.093 32.9662 458.169 32.9937C456.034 33.0075 454.189 32.4567 454.175 29.9781C454.148 27.4581 456.117 26.9073 458.169 26.9073C462.203 26.9073 466.251 26.8384 470.273 27.1C481.977 27.8987 490.253 37.1386 489.868 48.7607C489.496 60.0247 480.394 68.7276 468.895 68.7964C465.177 68.8102 461.46 68.7689 457.742 68.8102C455.208 68.8377 454.079 67.5984 454.092 65.106C454.12 57.67 454.12 50.2341 454.092 42.7981C454.079 40.7188 454.726 39.1077 457.012 39.0664C459.339 39.0251 460.028 40.7739 460.055 42.743C460.11 48.1548 460.097 53.5802 460.097 58.992C460.097 60.1349 460.097 61.2778 460.097 62.7925Z" fill="#172542"/>
<path d="M166.597 50.9502C166.597 55.2052 166.611 59.0196 166.583 62.8202C166.57 63.9769 166.79 65.3263 166.28 66.2627C165.729 67.2955 164.339 68.7414 163.554 68.6037C162.452 68.4109 160.785 66.965 160.745 65.9873C160.483 59.9422 160.51 53.8833 160.648 47.8381C160.703 45.3319 162.686 44.9463 164.78 44.9463C171.045 44.9601 177.31 44.9188 183.576 44.9601C186.082 44.9739 188.202 44.2992 189.566 42.0684C192.044 38.0612 189.29 33.1177 184.415 33.0213C178.261 32.8974 172.091 32.9937 165.936 32.9937C165.193 32.9937 164.242 33.2692 163.746 32.9249C162.59 32.1125 161.075 31.121 160.8 29.9643C160.634 29.2207 162.424 27.169 163.361 27.169C171.417 27.0725 179.514 26.8247 187.5 27.5821C193.188 28.1329 196.795 34.1229 196.299 40.1543C195.817 45.9378 191.136 50.5233 185.16 50.8538C182.088 51.019 179.004 50.9364 175.919 50.9502C172.986 50.9502 170.026 50.9502 166.597 50.9502Z" fill="#172542"/>
<path d="M428.053 32.9937C423.385 32.9937 418.73 32.98 414.063 32.9937C411.914 33.0075 410.138 32.3741 410.152 29.9092C410.152 27.5958 411.942 26.921 413.897 26.9073C423.33 26.866 432.763 26.866 442.195 26.921C444.15 26.9348 445.871 27.7059 445.789 30.0469C445.707 32.319 444.109 32.9937 442.058 32.98C437.375 32.98 432.721 32.9937 428.053 32.9937Z" fill="#172542"/>
<path d="M340.158 32.9937C335.71 32.9937 331.262 32.9662 326.8 33.0075C324.68 33.0213 322.821 32.5394 322.725 30.0744C322.642 27.5545 324.556 26.9211 326.622 26.9211C335.944 26.8798 345.267 26.8798 354.602 26.9348C356.53 26.9486 358.348 27.5821 358.348 29.9229C358.362 32.4016 356.627 33.035 354.451 33.0213C349.7 32.9662 344.936 32.9937 340.158 32.9937Z" fill="#172542"/>
<path d="M427.819 68.8102C423.164 68.8102 418.497 68.7826 413.842 68.8239C411.762 68.8377 410.207 68.1492 410.138 65.8909C410.083 63.7427 411.639 62.9303 413.512 62.9165C423.151 62.8614 432.79 62.8614 442.415 62.9027C444.274 62.9165 445.831 63.7014 445.776 65.8771C445.72 68.1767 444.192 68.8514 442.113 68.8239C437.348 68.7826 432.583 68.8102 427.819 68.8102Z" fill="#172542"/>
<path d="M340.433 68.8102C335.875 68.8102 331.33 68.7689 326.773 68.824C324.638 68.8515 322.793 68.3971 322.738 65.9047C322.683 63.3435 324.679 62.8615 326.704 62.8477C336.026 62.8064 345.349 62.8064 354.658 62.8615C356.585 62.8752 358.389 63.4535 358.362 65.8496C358.32 68.3833 356.558 68.8515 354.41 68.824C349.755 68.7689 345.088 68.8102 340.433 68.8102Z" fill="#172542"/>
<path d="M340.818 44.9601C345.376 44.9601 349.921 44.9601 354.478 44.9601C356.613 44.9601 358.431 45.5109 358.362 48.0446C358.307 50.3443 356.613 50.9502 354.589 50.9502C345.266 50.9502 335.944 50.9502 326.621 50.9502C324.501 50.9502 322.641 50.3581 322.725 47.8519C322.807 45.3456 324.748 44.9601 326.828 44.9601C331.496 44.9738 336.164 44.9601 340.818 44.9601Z" fill="#172542"/>
<path d="M427.585 50.9364C423.247 50.9364 418.896 50.9364 414.558 50.9364C412.423 50.9364 410.234 50.7299 410.165 48.0033C410.096 45.2906 412.203 44.9325 414.393 44.9325C423.495 44.9463 432.611 44.9463 441.713 44.9325C443.779 44.9325 445.747 45.2768 445.776 47.8381C445.803 50.5784 443.765 50.9502 441.561 50.9364C436.894 50.9364 432.239 50.9364 427.585 50.9364Z" fill="#172542"/>
</svg>
