<svg width="39" height="39" viewBox="0 0 39 39" fill="none" xmlns="http://www.w3.org/2000/svg">
<path d="M19.5 39C8.73135 39 0 30.2686 0 19.5C0 8.73135 8.73135 0 19.5 0C30.2686 0 39 8.73135 39 19.5C39 30.2686 30.2686 39 19.5 39ZM19.5 2.4375C10.0936 2.4375 2.4375 10.0936 2.4375 19.5C2.4375 28.9064 10.0936 36.5625 19.5 36.5625C28.9064 36.5625 36.5625 28.9064 36.5625 19.5C36.5625 10.0936 28.9064 2.4375 19.5 2.4375Z" fill="white"/>
<path d="M23.833 6.5V13.1585L17.489 19.4986L23.833 25.8411V32.5L10.833 19.4986L23.833 6.5Z" fill="white"/>
</svg>
