<svg width="67" height="70" viewBox="0 0 67 70" fill="none" xmlns="http://www.w3.org/2000/svg">
<path d="M1.85582 47.5192H65.1367C66.3378 44.0691 66.9925 40.3631 66.9925 36.5037C66.9925 18.0041 51.9957 3.00732 33.4962 3.00732C14.9967 3.00732 0 18.0041 0 36.5037C0 40.3631 0.654745 44.069 1.85582 47.5192Z" fill="#4CE088"/>
<path d="M1.85571 10.835V47.5192C4.24651 54.3871 8.81045 60.2363 14.7231 64.246L52.2649 64.2489C58.1797 60.2392 62.7452 54.3887 65.1366 47.5192V10.835H1.85571Z" fill="#D3DCFB"/>
<path d="M1.85571 47.5192C4.24651 54.3871 8.81045 60.2363 14.7231 64.246L28.7567 64.2471V23.3658C24.0138 22.8814 25.1865 18.7232 25.1865 18.7232C20.3596 16.6041 22.9039 11.1083 22.9039 11.1083C22.7779 11.0183 22.6654 10.927 22.5609 10.8348H1.85571V47.5192Z" fill="#BEC8F7"/>
<path d="M17.4903 7.03674C17.4903 9.28535 15.6674 11.1082 13.4188 11.1082H65.1367V7.03674H17.4903Z" fill="#E9EFFF"/>
<path d="M13.4188 11.1082H22.9041C20.5343 9.41783 22.1521 7.2801 22.1521 7.2801C22.0702 7.19821 21.9979 7.117 21.9328 7.03674H17.4903C17.4903 9.28535 15.6674 11.1082 13.4188 11.1082Z" fill="#D3DCFB"/>
<path d="M1.85571 7.03674V11.1082H13.6921C15.9407 11.1082 17.7636 9.28535 17.7636 7.03674H1.85571Z" fill="#4FABF7"/>
<path d="M62.8066 0H4.18581C2.89901 0 1.85571 1.04316 1.85571 2.33009V7.28026H65.1366V2.33009C65.1367 1.04316 64.0934 0 62.8066 0Z" fill="#3C58A0"/>
<path d="M22.152 0H4.18581C2.89901 0 1.85571 1.04316 1.85571 2.33009V7.28026H22.152C20.7371 5.86536 21.9365 4.66552 21.9365 4.66552V2.61474C20.6277 1.3058 22.152 0 22.152 0Z" fill="#2A428C"/>
<path d="M7.89334 5.07586C8.68632 5.07586 9.32916 4.43302 9.32916 3.64004C9.32916 2.84706 8.68632 2.20422 7.89334 2.20422C7.10036 2.20422 6.45752 2.84706 6.45752 3.64004C6.45752 4.43302 7.10036 5.07586 7.89334 5.07586Z" fill="#FF4155"/>
<path d="M12.1105 5.07586C12.9035 5.07586 13.5463 4.43302 13.5463 3.64004C13.5463 2.84706 12.9035 2.20422 12.1105 2.20422C11.3175 2.20422 10.6747 2.84706 10.6747 3.64004C10.6747 4.43302 11.3175 5.07586 12.1105 5.07586Z" fill="#FFDD40"/>
<path d="M16.3278 5.07586C17.1208 5.07586 17.7636 4.43302 17.7636 3.64004C17.7636 2.84706 17.1208 2.20422 16.3278 2.20422C15.5348 2.20422 14.892 2.84706 14.892 3.64004C14.892 4.43302 15.5348 5.07586 16.3278 5.07586Z" fill="#4CE088"/>
<path d="M52.227 4.6654H21.9368C21.3705 4.6654 20.9114 4.20644 20.9114 3.64001C20.9114 3.07359 21.3705 2.61462 21.9368 2.61462H52.227C52.7933 2.61462 53.2524 3.07359 53.2524 3.64001C53.2524 4.20644 52.7933 4.6654 52.227 4.6654Z" fill="#1C2E7A"/>
<path d="M59.6164 4.6654H57.0024C56.4362 4.6654 55.9771 4.20644 55.9771 3.64001C55.9771 3.07359 56.4362 2.61462 57.0024 2.61462H59.6164C60.1826 2.61462 60.6417 3.07359 60.6417 3.64001C60.6417 4.20644 60.1826 4.6654 59.6164 4.6654Z" fill="#1C2E7A"/>
<path d="M15.0544 64.4676C15.0577 64.4698 15.0611 64.4718 15.0644 64.474L52.6183 64.0059C52.6205 64.0044 52.6226 64.0029 52.6248 64.0014C57.6517 59.0698 60.7715 52.2011 60.7715 44.6027C60.7715 29.5941 48.6046 17.4272 33.5961 17.4272C18.5875 17.4272 6.42065 29.5941 6.42065 44.6027C6.42065 52.4436 9.74264 59.5076 15.0544 64.4676Z" fill="#E9EFFF"/>
<path d="M14.8228 64.2459L28.7568 64.247V23.3657C24.2693 22.9074 25.0773 19.1609 25.1772 18.7588C14.2902 22.3031 6.42065 32.5332 6.42065 44.6028C6.42065 52.3284 9.64721 59.298 14.8228 64.2459Z" fill="#D3DCFB"/>
<path d="M28.8137 54.6638C30.1496 55.7012 31.7983 56.2646 33.4962 56.2646C35.1941 56.2646 36.8426 55.7011 38.1786 54.6638C39.1688 53.8949 40.2253 52.8483 41.1498 51.5297C40.9022 51.4582 40.6519 51.3905 40.3987 51.327C40.1121 51.2553 39.8604 51.083 39.6979 50.8536C38.9485 49.7963 38.741 48.1621 38.7002 46.9769C38.1745 47.5892 37.6229 48.1013 37.0957 48.5106C34.9816 50.1524 32.008 50.1502 29.8968 48.5106C29.3696 48.1013 28.8181 47.5892 28.2924 46.9769C28.2507 48.1885 28.0349 49.8695 27.2442 50.9234C27.1092 51.1032 26.9014 51.2502 26.652 51.312C26.3793 51.3795 26.1095 51.4523 25.8425 51.5294C26.7669 52.848 27.8234 53.8948 28.8137 54.6638Z" fill="#FCAD6D"/>
<path d="M33.4377 49.74C32.1853 49.7276 30.9364 49.3181 29.8967 48.5106C29.3695 48.1013 28.8179 47.5892 28.2923 46.9769C28.2506 48.1885 28.0348 49.8695 27.244 50.9234C27.1091 51.1032 26.9013 51.2502 26.6519 51.312C26.3792 51.3795 26.1094 51.4523 25.8424 51.5294C26.7669 52.8482 27.8235 53.8949 28.8137 54.6638C29.3661 55.0928 29.9725 55.4393 30.6133 55.6998C32.641 53.8383 33.259 51.3398 33.4377 49.74Z" fill="#FD995B"/>
<path d="M31.7558 22.3553C26.5293 23.0675 26.0326 26.0307 26.0303 27.1178C26.0298 27.3458 25.9034 27.5571 25.6985 27.6569C22.9798 28.9793 24.4456 35.3533 24.4456 35.3533C24.7186 35.3715 25.1281 35.6058 25.3412 35.709C25.3935 35.3842 25.4786 35.0644 25.599 34.7554C25.6907 34.5199 25.8053 34.282 25.9485 34.0572C26.1972 33.6671 26.3104 33.2071 26.2767 32.747C26.1789 31.4173 26.1024 28.9208 27.8575 28.1311C29.3445 27.462 31.1686 27.8495 32.3318 28.2363C33.0872 28.4874 33.9056 28.4874 34.6609 28.2363C35.8241 27.8495 37.6481 27.462 39.1352 28.1311C40.8855 28.9186 40.8135 31.4024 40.7169 32.7357C40.6833 33.1992 40.7934 33.6641 41.0441 34.0571C41.192 34.2891 41.3093 34.5352 41.4025 34.7781C41.5183 35.0801 41.6006 35.3921 41.6515 35.709C41.9201 35.5789 42.4278 35.3134 42.7563 35.3599C42.7965 33.9661 42.9252 32.4636 42.9252 32.4636C44.4738 24.8781 37.3831 21.5886 31.7558 22.3553Z" fill="#2A428C"/>
<path d="M31.7559 22.356C26.5294 23.0681 26.0327 26.0314 26.0304 27.1184C26.0299 27.3465 25.9035 27.5577 25.6986 27.6575C22.98 28.98 24.4457 35.3539 24.4457 35.3539C24.7187 35.3721 25.1282 35.6065 25.3414 35.7097C25.3936 35.3848 25.4788 35.065 25.5991 34.7561C25.6908 34.5205 25.8054 34.2826 25.9487 34.0578C26.1974 33.6678 26.3106 33.2077 26.2768 32.7477C26.179 31.4179 26.1025 28.9215 27.8577 28.1318C29.3446 27.4627 31.1687 27.8501 32.3319 28.2369C32.6194 28.3325 32.9161 28.3913 33.2148 28.4141C33.1582 28.3215 33.0951 28.2314 33.0239 28.1446C30.6037 25.1974 33.586 22.2598 33.5962 22.2499C32.9742 22.2389 32.3567 22.2742 31.7559 22.356Z" fill="#1C2E7A"/>
<path d="M43.2198 35.5409C42.8128 35.1678 42.0019 35.3569 41.6514 35.5853C41.7282 36.0636 41.7326 36.5529 41.6662 37.0362L41.2525 40.0493C41.2525 40.2923 41.2448 40.5306 41.2307 40.7647C42.2396 41.069 42.7406 40.1632 42.8251 39.5417C42.8615 39.2741 42.9208 39.0104 43.0033 38.7531C43.2716 37.9152 44.2398 36.4755 43.2198 35.5409Z" fill="#FCAD6D"/>
<path d="M23.7729 35.5409C24.1799 35.1678 24.9908 35.3569 25.3413 35.5853C25.2645 36.0636 25.2601 36.5529 25.3265 37.0362L25.7402 40.0493C25.7402 40.2923 25.7479 40.5306 25.762 40.7647C24.7531 41.069 24.2521 40.1632 24.1676 39.5417C24.1312 39.2741 24.0719 39.0104 23.9894 38.7531C23.721 37.9152 22.7529 36.4755 23.7729 35.5409Z" fill="#FD995B"/>
<path d="M41.5262 34.6545C41.4331 34.4115 41.3156 34.1654 41.1677 33.9334C40.9172 33.5404 40.8069 33.0755 40.8405 32.6119C40.937 31.2786 40.8854 28.6711 39.1351 27.8836C37.6481 27.2145 35.8243 27.602 34.6611 27.9888C33.9057 28.2401 33.0871 28.2401 32.3316 27.9888C31.1684 27.602 29.3444 27.2147 27.8576 27.8836C26.1024 28.6733 26.0554 31.2935 26.153 32.6233C26.1867 33.0833 26.0735 33.5434 25.825 33.9334C25.6817 34.1582 25.5671 34.3962 25.4754 34.6317C25.178 35.3956 25.0914 36.2242 25.2026 37.0354L25.6165 40.0493C25.6165 44.3821 27.9295 47.3272 29.8969 48.855C30.9238 49.6525 32.1912 50.0856 33.4964 50.0856C34.8017 50.0856 36.0689 49.6525 37.0959 48.855C39.0633 47.3272 41.3763 44.3821 41.3763 40.0493L41.79 37.0361C41.9004 36.2329 41.8167 35.4125 41.5262 34.6545Z" fill="#F9BA8F"/>
<path d="M35.5023 48.8553C33.535 47.3275 31.222 44.3825 31.222 40.0496L30.8081 37.0357C30.6967 36.2245 30.7834 35.3959 31.0809 34.632C31.1726 34.3964 31.2872 34.1585 31.4305 33.9337C31.6791 33.5437 31.7923 33.0836 31.7584 32.6236C31.6697 31.4154 31.7007 29.1422 33.0238 28.1443C32.7897 28.114 32.5577 28.0641 32.3316 27.9891C31.1684 27.6023 29.3444 27.215 27.8576 27.8839C26.1024 28.6736 26.0554 31.2938 26.153 32.6236C26.1867 33.0836 26.0735 33.5437 25.825 33.9337C25.6817 34.1585 25.5671 34.3965 25.4754 34.632C25.178 35.3959 25.0914 36.2245 25.2026 37.0357L25.6165 40.0496C25.6165 44.3825 27.9295 47.3275 29.8969 48.8553C30.9238 49.6528 32.1912 50.0859 33.4964 50.0859C34.4813 50.0859 35.4444 49.839 36.2991 49.3753C36.0211 49.2245 35.7544 49.051 35.5023 48.8553Z" fill="#FCAD6D"/>
<path d="M48.0256 54.441C47.3541 54.386 46.9968 54.1256 46.2053 53.6794C44.5568 52.7497 42.8497 52.0082 40.9897 51.4868C40.0812 52.7926 39.0386 53.827 38.0625 54.585C36.7597 55.5966 35.1521 56.146 33.4964 56.146C31.8406 56.146 30.2329 55.5966 28.9303 54.585C27.954 53.8267 26.9111 52.7922 26.0024 51.4858C24.1502 52.0061 22.4312 52.7521 20.7873 53.6792C19.9958 54.1255 19.6386 54.3859 18.967 54.4409C14.6849 54.791 12.6968 57.6309 11.7929 60.5482C11.7725 60.6143 11.755 60.681 11.7357 60.7473C12.7293 62.0904 13.8454 63.3367 15.0644 64.4742C20.3517 67.9656 26.6859 70 33.4963 70C40.6055 70 47.1961 67.7834 52.6184 64.0061C53.5901 63.0533 54.4921 62.0297 55.3126 60.9409C55.2766 60.8096 55.2401 60.6784 55.1998 60.5482C54.2959 57.6311 52.3078 54.7911 48.0256 54.441Z" fill="#3C58A0"/>
<path d="M28.9301 54.585C27.9538 53.8267 26.9109 52.7922 26.0023 51.4858C24.1501 52.0061 22.4311 52.7521 20.7872 53.6792C19.9957 54.1255 19.6385 54.3859 18.9669 54.4409C14.6848 54.791 12.6967 57.6309 11.7927 60.5482C11.7724 60.6143 11.7549 60.681 11.7356 60.7473C12.7291 62.0904 13.8453 63.3367 15.0643 64.4742C16.7853 65.6106 18.6179 66.5915 20.541 67.3993C20.6253 60.9915 21.5944 59.6207 27.6436 57.4603C28.926 57.0023 29.9289 56.3526 30.7135 55.6071C30.0782 55.3517 29.477 55.0098 28.9301 54.585Z" fill="#2A428C"/>
<path d="M54.2597 25.3001L53.5571 26.1152C53.4051 26.2916 53.3568 26.5349 53.43 26.7562L53.7679 27.7763C53.8713 28.0885 53.7301 28.4293 53.4361 28.5768L52.4757 29.0588C52.2673 29.1634 52.1292 29.3697 52.1121 29.6022L52.033 30.6749C52.0088 31.0024 51.7485 31.2628 51.421 31.2869L50.3483 31.366C50.1159 31.3833 49.9095 31.5212 49.8049 31.7296L49.3229 32.69C49.1754 32.984 48.8346 33.1252 48.5224 33.0217L47.5022 32.6837C47.2812 32.6104 47.0378 32.6587 46.8613 32.8109L46.0463 33.5135C45.7978 33.7277 45.4297 33.7277 45.1812 33.5135L44.3661 32.8109C44.1896 32.6588 43.9463 32.6106 43.7251 32.6837L42.7049 33.0217C42.3928 33.125 42.052 32.9838 41.9044 32.69L41.4225 31.7296C41.3179 31.5212 41.1116 31.3831 40.8791 31.366L39.8064 31.2869C39.4789 31.2627 39.2186 31.0024 39.1944 30.6749L39.1152 29.6022C39.0982 29.3698 38.9601 29.1634 38.7517 29.0588L37.7913 28.5768C37.4973 28.4293 37.3561 28.0885 37.4596 27.7763L37.7976 26.7562C37.8708 26.5351 37.8226 26.2917 37.6704 26.1152L36.9678 25.3002C36.7536 25.0517 36.7536 24.6836 36.9678 24.4351L37.6704 23.62C37.8224 23.4436 37.8707 23.2002 37.7976 22.979L37.4596 21.9588C37.3562 21.6467 37.4975 21.3059 37.7914 21.1583L38.7518 20.6764C38.9602 20.5718 39.0983 20.3655 39.1154 20.133L39.1945 19.0603C39.2187 18.7328 39.4791 18.4725 39.8065 18.4483L40.8792 18.3692C41.1116 18.3519 41.3181 18.214 41.4226 18.0056L41.9046 17.0452C42.0521 16.7512 42.3929 16.61 42.7051 16.7135L43.7253 17.0515C43.9463 17.1247 44.1897 17.0765 44.3662 16.9243L45.1812 16.2217C45.4297 16.0075 45.7978 16.0075 46.0463 16.2217L46.8614 16.9243C47.0378 17.0763 47.2812 17.1246 47.5024 17.0515L48.5226 16.7135C48.8347 16.6101 49.1755 16.7514 49.3231 17.0452L49.8051 18.0056C49.9097 18.214 50.116 18.3521 50.3485 18.3692L51.4211 18.4483C51.7486 18.4725 52.0089 18.7328 52.0331 19.0603L52.1123 20.133C52.1294 20.3654 52.2674 20.5718 52.4758 20.6764L53.4362 21.1583C53.7302 21.3059 53.8714 21.6467 53.7681 21.9588L53.4301 22.979C53.3568 23.2001 53.4051 23.4435 53.5572 23.62L54.2598 24.4349C54.4739 24.6835 54.4739 25.0515 54.2597 25.3001Z" fill="#4FABF7"/>
<path d="M43.7254 17.0513L42.7052 16.7134C42.3931 16.61 42.0522 16.7512 41.9047 17.045L41.4228 18.0055C41.3182 18.2139 41.1119 18.3519 40.8793 18.369L39.8066 18.4482C39.4792 18.4724 39.2187 18.7327 39.1947 19.0601L39.1155 20.1328C39.0984 20.3653 38.9603 20.5717 38.752 20.6763L37.7915 21.1582C37.4976 21.3057 37.3563 21.6464 37.4597 21.9587L37.7977 22.9789C37.871 23.2001 37.8227 23.4433 37.6705 23.6198L36.9679 24.435C36.7537 24.6835 36.7537 25.0516 36.9679 25.3001L37.6704 26.1151C37.8226 26.2915 37.8707 26.5348 37.7975 26.756L37.4596 27.7762C37.3562 28.0884 37.4974 28.4292 37.7914 28.5767L38.7518 29.0586C38.9602 29.1632 39.0983 29.3695 39.1154 29.6021L39.1945 30.6748C39.2187 31.0022 39.479 31.2626 39.8065 31.2867L40.8792 31.3659C41.1116 31.383 41.318 31.5211 41.4226 31.7294L41.9046 32.6899C42.0521 32.9838 42.3929 33.1251 42.705 33.0217L43.7252 32.6837C43.9463 32.6105 44.1897 32.6587 44.3662 32.8109L45.1813 33.5135C45.4299 33.7277 45.7979 33.7277 46.0465 33.5135L46.8614 32.8109C47.0379 32.6589 47.2812 32.6106 47.5024 32.6837L48.5226 33.0217C48.8347 33.1251 49.1755 32.9838 49.323 32.69L49.805 31.7296C49.9096 31.5212 50.1159 31.3831 50.3484 31.366L51.4211 31.2869C51.7486 31.2627 52.009 31.0024 52.0331 30.6749C46.6086 29.7066 48.3012 25.5291 48.3012 25.5291L47.1153 23.6369C41.9117 22.3069 44.3662 16.9243 44.3662 16.9243C44.1898 17.0764 43.9465 17.1246 43.7254 17.0513Z" fill="#1886EA"/>
<path d="M45.1409 28.2384C44.8523 28.2384 44.5754 28.1237 44.3713 27.9197L41.9583 25.5067C41.5334 25.0816 41.5334 24.3927 41.9583 23.9676C42.3835 23.5427 43.0723 23.543 43.4974 23.9676L45.1407 25.6111L48.262 22.4898C48.6871 22.0649 49.376 22.0649 49.8011 22.4898C50.226 22.9149 50.226 23.6038 49.8011 24.0289L45.9102 27.9197C45.7062 28.1237 45.4295 28.2384 45.1409 28.2384Z" fill="#E9EFFF"/>
<path d="M49.6233 65.8654C49.368 63.3491 48.3374 61.7189 47.3848 60.7311C46.7494 60.0724 45.6335 60.5312 45.6335 61.4463V67.7304C47.01 67.1949 48.3421 66.5709 49.6233 65.8654Z" fill="#2A428C"/>
</svg>
