<svg width="19" height="19" viewBox="0 0 19 19" fill="none" xmlns="http://www.w3.org/2000/svg">
<path d="M3.26656 18.9997H15.7337C17.5347 18.9997 19 17.5341 19 15.7332V3.26597C19 1.46532 17.5347 0 15.7337 0H3.26656C1.46532 0 0 1.46532 0 3.26597V15.7334C0 17.5344 1.46532 18.9997 3.26656 18.9997ZM1.76794 3.26597C1.76794 2.43975 2.44005 1.76794 3.26656 1.76794H15.7337C16.56 1.76794 17.2321 2.43975 17.2321 3.26597V15.7334C17.2321 16.5597 16.56 17.2321 15.7337 17.2321H3.26656C2.44005 17.2324 1.76794 16.56 1.76794 15.7337V3.26597Z" fill="#08152d"/>
<path d="M8.24743 12.2896L9.49736 13.5392L9.49824 13.5386L9.49883 13.5392L10.7485 12.2896L10.7479 12.2887L13.5574 9.47945L12.3075 8.22952L10.4005 10.1365V5.46094H8.63255V10.1734L6.68841 8.22952L5.43848 9.47945L8.24802 12.2887L8.24743 12.2896Z" fill="#08152d"/>
</svg>
