<svg width="35" height="35" viewBox="0 0 35 35" fill="none" xmlns="http://www.w3.org/2000/svg">
<path d="M26.25 5.25L24.0625 10.7341L21.875 5.25V-1.2666e-06H0V35H11.375V31.5H3.5V3.5H18.375V29.75H21.875V13.8653L24.0625 19.25L26.25 13.8653V29.75H29.75V5.25H26.25Z" fill="#08152D"/>
<path d="M8.75 29.75V13.8653L10.9375 19.25L13.125 13.8653V35H35V-1.2666e-06H23.625V3.5H31.5V31.5H16.625V5.25H13.125L10.9375 10.7341L8.75 5.25H5.25V29.75H8.75Z" fill="#08152D"/>
</svg>
