<svg width="26" height="22" viewBox="0 0 26 22" fill="none" xmlns="http://www.w3.org/2000/svg">
<path d="M20.3971 18.0911C20.3971 18.0932 20.3971 18.0952 20.3971 18.0978C18.334 19.9688 15.5952 21.1084 12.5912 21.1084C9.58669 21.1084 6.84791 19.9688 4.78479 18.0978C4.78479 18.0952 4.78479 18.0932 4.78479 18.0911C4.78479 14.9793 6.60568 12.2932 9.23972 11.0396C10.2296 12.0269 11.3887 12.5589 12.5913 12.5589C13.7943 12.5589 14.9529 12.0269 15.9433 11.0396C18.5772 12.2932 20.3971 14.9793 20.3971 18.0911Z" fill="white"/>
<path d="M12.5912 1.21069C14.9758 1.21069 16.9091 3.14353 16.9091 5.52814C16.9091 7.91324 14.9758 11.1748 12.5912 11.1748C10.2066 11.1748 8.27325 7.91324 8.27325 5.52814C8.27325 3.14353 10.2066 1.21069 12.5912 1.21069Z" fill="white"/>
<path d="M8.95219 9.65696C9.08454 9.84555 9.22153 10.0224 9.3631 10.1884L8.93228 10.3933C7.49824 11.0756 6.28499 12.1432 5.42285 13.4806C4.72165 14.5687 4.28215 15.7952 4.12934 17.0739C2.57114 16.6492 1.16263 15.8617 0 14.8074V14.8017C0 12.0901 1.58685 9.74943 3.88199 8.65674C4.74467 9.51735 5.75449 9.9809 6.80217 9.9809C7.48853 9.9809 8.15901 9.7821 8.78203 9.40289C8.8367 9.48882 8.89393 9.57365 8.95219 9.65696Z" fill="white"/>
<path d="M7.558 5.5282C7.558 6.4246 7.79106 7.41095 8.20601 8.33801C7.77213 8.61297 7.29837 8.77495 6.80214 8.77495C4.72418 8.77495 3.03973 5.93294 3.03973 3.85444C3.03973 1.77649 4.72418 0.0925293 6.80214 0.0925293C7.95456 0.0925293 8.98642 0.61075 9.67633 1.4269C8.3951 2.3407 7.558 3.83862 7.558 5.5282Z" fill="white"/>
<path d="M16.2178 9.65696C16.0854 9.84555 15.9485 10.0224 15.8069 10.1884L16.2377 10.3933C17.6717 11.0756 18.885 12.1432 19.7471 13.4806C20.4483 14.5687 20.8878 15.7952 21.0406 17.0739C22.5989 16.6492 24.0074 15.8617 25.17 14.8074V14.8017C25.17 12.0901 23.5831 9.74943 21.288 8.65674C20.4253 9.51735 19.4155 9.9809 18.3678 9.9809C17.6815 9.9809 17.011 9.7821 16.388 9.40289C16.3333 9.48882 16.2761 9.57365 16.2178 9.65696Z" fill="white"/>
<path d="M17.612 5.5282C17.612 6.4246 17.3789 7.41095 16.964 8.33801C17.3979 8.61297 17.8716 8.77495 18.3678 8.77495C20.4458 8.77495 22.1302 5.93294 22.1302 3.85444C22.1302 1.77649 20.4458 0.0925293 18.3678 0.0925293C17.2154 0.0925293 16.1836 0.61075 15.4937 1.4269C16.7749 2.3407 17.612 3.83862 17.612 5.5282Z" fill="white"/>
</svg>
