<svg width="14" height="13" viewBox="0 0 14 13" fill="none" xmlns="http://www.w3.org/2000/svg">
<path d="M10.04 8.83008L12.86 11.6601" stroke="#8B8C99"/>
<path d="M5.99414 1.49391C4.92571 1.49391 3.92123 1.90997 3.16576 2.66544C1.60615 4.22511 1.6061 6.7628 3.16563 8.32231C3.92117 9.07782 4.92569 9.49388 5.99414 9.49388C7.06259 9.49388 8.06711 9.07782 8.82263 8.32234C9.57813 7.56685 9.99419 6.56236 9.99418 5.49394C9.99417 4.42549 9.57807 3.42099 8.82253 2.66545C8.06705 1.90997 7.06257 1.49391 5.99414 1.49391ZM5.99414 0.493896C7.27374 0.493896 8.55334 0.982056 9.52964 1.95834C11.4823 3.91104 11.4823 7.07684 9.52974 9.02945C8.55339 10.0057 7.27377 10.4939 5.99414 10.4939C4.71452 10.4939 3.43489 10.0057 2.45854 9.02945C0.505939 7.07684 0.506042 3.91104 2.45864 1.95834C3.43494 0.982056 4.71454 0.493896 5.99414 0.493896Z" fill="#8B8C99"/>
</svg>
