<svg width="23" height="23" viewBox="0 0 23 23" fill="none" xmlns="http://www.w3.org/2000/svg">
<path d="M13.585 11.5L22.5678 2.51714C23.144 1.9411 23.1442 1.00839 22.5678 0.432217C21.9917 -0.143997 21.0591 -0.144132 20.4829 0.432172L11.5 9.41505L2.51714 0.432217C1.94111 -0.143953 1.00835 -0.144132 0.432177 0.432127C-0.144037 1.0083 -0.144082 1.94088 0.432177 2.51709L9.41495 11.5L0.432132 20.4828C-0.142734 21.0577 -0.142734 21.993 0.432132 22.5678C1.00826 23.144 1.94093 23.1441 2.5171 22.5678L11.4999 13.5849L20.4827 22.5677C21.0588 23.1439 21.9915 23.144 22.5676 22.5678C23.1439 21.9916 23.144 21.059 22.5677 20.4827L13.585 11.5Z" fill="#08152D"/>
</svg>
