<svg width="14" height="17" viewBox="0 0 14 17" fill="none" xmlns="http://www.w3.org/2000/svg">
<path d="M7.5988 14.2927C4.62673 12.4971 2.20869 8.54717 2.20869 5.48767C2.20869 5.47599 2.20937 5.46486 2.20937 5.45346L0.54671 4.92603C0.516164 5.1746 0.498787 5.43241 0.498787 5.70135C0.498787 9.21851 3.13852 13.5683 6.50823 15.6043C6.89081 15.8352 7.37086 16.0868 7.90847 16.2876L8.33598 14.6845C8.09161 14.572 7.84493 14.4414 7.5988 14.2927Z" fill="#1F5C9C"/>
<path d="M6.67264 14.8392C3.70043 13.0435 1.28253 9.09356 1.28253 6.03406C1.28253 6.02252 1.28307 6.01139 1.28321 5.99985L0.0480593 5.25873C0.0173774 5.50731 0 5.76525 0 6.03406C0 9.55121 2.63973 13.901 6.00958 15.937C6.39202 16.1679 6.87207 16.4195 7.40982 16.6203V15.2309C7.16545 15.1185 6.91864 14.9879 6.67264 14.8392Z" fill="#FFD900"/>
<path d="M0 9.09165L9.68965 3.74811L13.8932 6.24176L4.34611 11.5853L0 9.09165Z" fill="#0EC478"/>
<path d="M0 9.09158V13.2239L4.34611 15.7888V11.5852L0 9.09158Z" fill="#089970"/>
<path d="M4.34611 15.7888L13.8932 10.374V6.24167L4.34611 11.5852V15.7888Z" fill="#107054"/>
<path d="M2.13742 9.03015C2.13742 8.88611 2.02799 8.75646 1.85286 8.66387L8.88744 4.75586C9.05551 4.8494 9.28888 4.90764 9.54724 4.90764C9.79785 4.90764 10.0248 4.85266 10.1916 4.76387L11.9845 5.80638C11.8006 5.89924 11.6847 6.03215 11.6847 6.18026C11.6847 6.32009 11.8032 6.43481 11.9696 6.52672L5.04745 10.4085C4.87761 10.3003 4.62673 10.2315 4.34611 10.2315C4.06807 10.2315 3.81922 10.2991 3.64952 10.4057L1.86359 9.391C2.03261 9.29882 2.13742 9.17121 2.13742 9.03015Z" fill="#FFFBDB"/>
<path d="M8.76349 7.59546C8.76349 7.04454 7.95001 6.59802 6.94661 6.59802C5.9432 6.59802 5.12986 7.04454 5.12986 7.59546C5.12986 8.14624 5.9432 8.59289 6.94661 8.59289C7.95001 8.59289 8.76349 8.14624 8.76349 7.59546Z" fill="#0EC478"/>
<path d="M13.8932 7.02536L4.34611 12.3689V13.0814L13.8932 7.73783V7.02536Z" fill="#089970"/>
<path d="M13.8932 8.30786L4.34611 13.6514V14.3639L13.8932 9.02033V8.30786Z" fill="#089970"/>
<path d="M13.8932 9.73282L4.34611 15.0764V15.7888L13.8932 10.374V9.73282Z" fill="#089970"/>
<path d="M4.34611 12.3688L0 9.87515V10.5876L4.34611 13.0813V12.3688Z" fill="#0EC478"/>
<path d="M4.34611 13.6513L0 11.1577V11.8702L4.34611 14.3638V13.6513Z" fill="#0EC478"/>
<path d="M4.34611 15.0763L0 12.5826V13.2238L4.34611 15.7888V15.0763Z" fill="#0EC478"/>
<path d="M9.04845 3.53426L5.69978 0V1.43336C5.3115 1.34322 4.50454 1.51034 4.13595 1.51034C3.4357 1.51034 2.80549 1.67542 2.26272 2.00098C1.30452 2.57606 0.710706 3.60173 0.546707 4.93056L1.02146 5.08112L0.997568 5.10175L1.42508 5.95677L1.92373 6.17046L2.20869 5.60054V5.45772L2.2095 5.45799C2.21697 4.23709 2.621 3.32451 3.35017 2.88695C3.69065 2.68263 4.09889 2.57905 4.5636 2.57905C4.91779 2.57905 5.3005 2.64217 5.69991 2.76192V3.53439H9.04845V3.53426Z" fill="#1F5C9C"/>
<path d="M2.42387 3.42894C2.76449 3.22462 3.17273 3.12104 3.6373 3.12104C3.9915 3.12104 4.37421 3.18403 4.77362 3.30377V4.10435H8.12229L4.77362 0.541992V1.97535C4.38534 1.88507 4.00575 1.83851 3.6373 1.83851C2.93705 1.83851 2.30671 2.00359 1.76407 2.32928C0.805738 2.90423 0.211921 3.9299 0.0480576 5.25886L1.28321 5.99998C1.29068 4.77895 1.6947 3.86636 2.42387 3.42894Z" fill="#FFD900"/>
<path d="M4.77362 0.541957L5.69978 0L9.04845 3.56236L8.12229 4.10432L4.77362 0.541957Z" fill="#1F5C9C"/>
<path d="M12.608 12.1552C12.6086 12.1941 12.6108 12.2333 12.6108 12.2717C12.6108 13.5101 11.7779 14.6652 11.042 15.1067C10.6993 15.3124 10.7228 15.219 10.2684 15.219H10.2683C9.69142 15.219 9.02551 15.0174 8.34019 14.7021L8.33598 14.6846L7.90847 14.7914C7.90847 14.7914 7.69478 15.219 7.69478 15.2901C7.69478 15.3614 7.8372 15.6463 7.90847 15.6463C7.92815 15.6463 7.99183 15.663 8.07288 15.6865L7.90847 16.3031C8.49944 16.5238 9.16018 16.715 9.84062 16.715H9.84102C10.531 16.715 11.5845 16.3196 12.1293 15.9927C13.129 15.3929 13.7336 14.2955 13.8655 12.882L12.608 12.1552Z" fill="#1F5C9C"/>
<path d="M11.6817 12.6859C11.6823 12.7247 11.6847 12.764 11.6847 12.8024C11.6847 14.0408 11.2793 14.966 10.5432 15.4076C10.2005 15.6132 9.7965 15.7174 9.34224 15.7174H9.34211C8.76404 15.7173 8.0965 15.5472 7.40969 15.2307V16.6201C8.00079 16.8407 8.6614 16.9998 9.34197 17H9.34224C10.0322 17 10.6583 16.8342 11.203 16.5073C12.2027 15.9075 12.8074 14.8182 12.9392 13.4046L11.6817 12.6859Z" fill="#FFD900"/>
<path d="M11.6817 12.6861L12.608 12.1552L13.8655 12.8738L12.9394 13.4046L11.6817 12.6861Z" fill="#639DEB"/>
</svg>
