<svg width="81" height="74" viewBox="0 0 81 74" fill="none" xmlns="http://www.w3.org/2000/svg">
<g opacity="0.5">
<path d="M63.4998 20.1772C60.6876 6.51048 47.3286 -2.28874 33.662 0.523485C21.9594 2.93164 13.5439 13.2083 13.4902 25.1558C13.4902 25.725 13.5137 26.3079 13.5642 26.9243C5.23889 27.8056 -0.795794 35.2689 0.0854546 43.5943C0.902279 51.3109 7.41461 57.1648 15.1744 57.1572H16.9429C16.9024 56.5981 16.8587 56.0423 16.8587 55.4729C16.8587 43.3803 26.6617 33.5772 38.7544 33.5772C50.8472 33.5772 60.65 43.3803 60.65 55.4729C60.65 56.0421 60.6063 56.598 60.5658 57.1572H62.3343C72.5553 57.1852 80.8638 48.922 80.8917 38.7009C80.9186 28.8935 73.2897 20.768 63.4998 20.1772Z" fill="#BBDEFB"/>
<path d="M38.7545 74C48.9867 74 57.2815 65.7052 57.2815 55.473C57.2815 45.2407 48.9867 36.9459 38.7545 36.9459C28.5223 36.9459 20.2274 45.2407 20.2274 55.473C20.2274 65.7052 28.5223 74 38.7545 74Z" fill="#E7E7E7"/>
<path d="M38.7545 67.263C37.8243 67.263 37.0702 66.5088 37.0702 65.5786V45.3672C37.0702 44.437 37.8243 43.6829 38.7545 43.6829C39.6847 43.6829 40.4389 44.437 40.4389 45.3672V65.5786C40.4387 66.5088 39.6847 67.263 38.7545 67.263Z" fill="#08152D"/>
<path d="M45.4913 53.7897C45.0442 53.7905 44.6152 53.6136 44.2988 53.2978L38.7541 47.7498L33.2094 53.2978C32.5403 53.9441 31.474 53.9255 30.8277 53.2564C30.1972 52.6037 30.1972 51.5689 30.8277 50.9162L37.5649 44.179C38.2226 43.5215 39.2887 43.5215 39.9465 44.179L46.6837 50.9162C47.3404 51.5749 47.3389 52.6414 46.6799 53.2981C46.3645 53.6128 45.937 53.7895 45.4913 53.7897Z" fill="#08152D"/>
</g>
</svg>
