<svg width="40" height="45" viewBox="0 0 40 45" fill="none" xmlns="http://www.w3.org/2000/svg">
<path d="M24.5827 31.2019L24.5891 31.1973C24.4091 30.7167 24.3402 30.2016 24.3877 29.6905C24.4351 29.1795 24.5977 28.6859 24.8631 28.2466L24.8392 28.2227C24.1156 27.4965 23.3858 26.776 22.6711 26.0411C22.5402 25.9064 22.4119 25.8223 22.2724 25.7913C21.5854 26.2228 20.7914 26.4535 19.9801 26.4571C19.1689 26.4607 18.3728 26.2371 17.6821 25.8116C17.5386 25.8559 17.4063 25.9512 17.2697 26.0943C16.663 26.7299 16.046 27.3567 15.4092 27.9609C15.3162 28.0472 15.2287 28.1392 15.147 28.2362C15.4288 28.6745 15.606 29.1717 15.665 29.6894C15.7241 30.2071 15.6633 30.7314 15.4874 31.2219C15.494 31.2272 15.5005 31.2332 15.5073 31.238C16.1939 31.7475 16.9884 32.12 17.6498 32.6575C17.9526 32.9054 18.2917 33.1052 18.6553 33.25C19.0397 32.9606 19.5093 32.8072 19.9904 32.8138C20.4715 32.8203 20.9368 32.9866 21.3131 33.2863C22.4064 32.5968 23.4962 31.902 24.5827 31.2019Z" fill="#050505"/>
<path d="M29.1398 26.5081C29.6558 25.6955 30.1661 24.8793 30.6864 24.0693C30.8087 23.8788 30.9409 23.6928 31.0477 23.4988C30.7406 23.1284 30.5652 22.6665 30.5492 22.1857C30.5331 21.7048 30.6773 21.2323 30.9591 20.8423C30.9557 20.8361 30.9526 20.8296 30.9491 20.8234C30.3659 19.8084 29.6933 18.8451 29.093 17.8392C29.0668 17.7949 29.0402 17.7534 29.0133 17.7149C28.5202 17.8971 27.9915 17.9625 27.4688 17.9058C26.9461 17.8492 26.4437 17.6721 26.0011 17.3884C25.9951 17.3933 25.9889 17.3977 25.9834 17.4026C25.2188 18.0839 24.5247 18.8438 23.792 19.5616C23.7259 19.6241 23.6686 19.6952 23.6215 19.7729C24.0657 20.4679 24.303 21.2749 24.3056 22.0997C24.3082 22.9245 24.0761 23.733 23.6363 24.4308C23.6604 24.5918 23.72 24.7506 23.8033 24.8445C24.4272 25.5484 25.134 26.1781 25.7734 26.8691C25.8479 26.951 25.9275 27.0282 26.0117 27.1001C26.447 26.8376 26.9356 26.676 27.4415 26.6272C27.9475 26.5784 28.4579 26.6437 28.9353 26.8182C28.9945 26.7369 29.0592 26.635 29.1398 26.5081Z" fill="#050505"/>
<path d="M18.6599 11.1993C17.5968 11.8235 16.5647 12.5046 15.5268 13.173C15.4531 13.2204 15.3638 13.2747 15.2878 13.3338C15.4125 13.7748 15.4468 14.2365 15.3887 14.6911C15.3305 15.1457 15.1811 15.5838 14.9494 15.9792C15.0029 16.0483 15.0611 16.1136 15.1235 16.1748C15.8566 16.9216 16.6059 17.653 17.335 18.4036C17.3835 18.4542 17.4367 18.5002 17.4938 18.5407C18.2252 18.0355 19.094 17.7669 19.9829 17.771C20.8718 17.7752 21.738 18.0519 22.4646 18.564C22.5621 18.5038 22.6506 18.4302 22.7275 18.3454C23.3453 17.6911 23.9769 17.0479 24.6356 16.4353C24.7198 16.3585 24.799 16.2763 24.8726 16.1894C24.629 15.7532 24.4845 15.2686 24.4495 14.7702C24.4144 14.2717 24.4897 13.7717 24.67 13.3057C24.5739 13.2249 24.4708 13.1527 24.3621 13.0899C23.6254 12.6512 22.9076 12.1803 22.1873 11.7145C21.8363 11.4875 21.4958 11.2308 21.1242 11.0789C20.7798 11.3149 20.3746 11.4467 19.9572 11.4585C19.5398 11.4703 19.1279 11.3615 18.7707 11.1453C18.7324 11.1604 18.6954 11.1785 18.6599 11.1993Z" fill="#050505"/>
<path d="M16.1973 24.8421C16.2652 24.767 16.3166 24.6478 16.3461 24.5191C15.8733 23.8079 15.6206 22.9732 15.6197 22.1192C15.6187 21.2652 15.8694 20.4298 16.3406 19.7175C16.2997 19.6584 16.2528 19.6036 16.2008 19.5541C15.465 18.84 14.77 18.0821 14.0103 17.3968C13.9241 17.3191 13.8065 17.2639 13.6781 17.2258C12.9008 17.6591 11.9846 17.7704 11.1261 17.5359C11.0419 17.6336 10.9671 17.739 10.9026 17.8506C10.3731 18.7282 9.81625 19.5893 9.259 20.4498C9.13873 20.6354 9.01425 20.8177 8.91791 21.0066C9.1682 21.3643 9.30489 21.7891 9.31015 22.2256C9.3154 22.6622 9.18898 23.0902 8.94737 23.4538C8.95202 23.4629 8.95667 23.4719 8.96176 23.4806C9.60075 24.5605 10.2969 25.6068 10.9536 26.6762C11.0002 26.7537 11.0543 26.8264 11.115 26.8935C11.5742 26.7233 12.0646 26.6544 12.5529 26.6914C13.0411 26.7284 13.5156 26.8703 13.9439 27.1076C14.7266 26.3854 15.4832 25.6314 16.1973 24.8421Z" fill="#050505"/>
<path d="M20.9778 4.48003C20.9778 3.51679 20.9866 2.55311 20.9747 1.59009C20.9866 2.55333 20.9784 3.51701 20.9771 4.48003C20.9771 4.73142 20.9691 4.98303 20.9784 5.23308C20.9691 4.9828 20.9771 4.7312 20.9778 4.48003Z" fill="#050505"/>
<path d="M19.0766 4.4587C19.0781 5.21308 19.0635 5.96768 19.0825 6.72161C19.0635 5.96856 19.0779 5.21308 19.0772 4.4587C19.0772 3.51583 19.0666 2.57275 19.0808 1.62988C19.0666 2.57275 19.0766 3.51583 19.0766 4.4587Z" fill="#050505"/>
<path d="M8.42578 7.57863C8.60425 7.85915 8.71606 8.17684 8.75261 8.5073C8.78916 8.83777 8.74949 9.17221 8.63664 9.48496C9.21804 10.0726 9.79257 10.667 10.4043 11.2207C10.4183 11.2333 10.4331 11.2449 10.4486 11.2555C11.0708 10.93 11.7786 10.8054 12.4746 10.899C13.1705 10.9927 13.8203 11.2998 14.3344 11.7782C14.6367 11.7251 14.914 11.5616 15.2061 11.3224C15.335 11.217 15.4921 11.147 15.6269 11.0486C16.3171 10.5476 17.12 10.195 17.7474 9.61984C17.6755 9.1508 17.759 8.67111 17.9851 8.25392C18.2112 7.83672 18.5675 7.50491 18.9997 7.30908C19.0576 7.11862 19.0855 6.9203 19.0823 6.72126C19.0633 5.96821 19.0777 5.21272 19.0764 4.45834C19.0764 3.51548 19.0666 2.57239 19.0806 1.62953C19.0872 1.18146 18.9158 0.968835 18.4513 0.991648C17.3849 1.04436 16.3162 1.06274 15.2506 1.13982C15.0057 1.15732 14.7202 1.29907 14.5432 1.47427C12.4962 3.49997 10.4665 5.54451 8.42578 7.57863Z" fill="#050505"/>
<path d="M21.0177 7.43018C21.3378 7.62344 21.6026 7.89614 21.7863 8.22183C21.97 8.54752 22.0665 8.91516 22.0664 9.2891C22.0664 9.3334 22.0649 9.3777 22.0622 9.422C22.155 9.55799 22.2567 9.6818 22.3831 9.76973C23.3621 10.4508 24.3705 11.0927 25.3984 11.6967C25.5092 11.7611 25.6642 11.797 25.821 11.8021C26.3004 11.4489 26.8642 11.228 27.4558 11.1615C28.0475 11.095 28.6462 11.1852 29.192 11.4231C29.3728 11.3848 29.5513 11.3053 29.6642 11.203C30.2789 10.6457 30.8541 10.0453 31.4383 9.45455C31.3232 9.15302 31.2765 8.82963 31.3018 8.50784C31.3271 8.18606 31.4237 7.87392 31.5845 7.59407C29.567 5.56505 27.5601 3.52538 25.5335 1.50544C25.3431 1.3154 25.0352 1.16213 24.7703 1.14176C23.7072 1.06069 22.6383 1.04386 21.572 0.992475C21.1393 0.971656 20.9694 1.16612 20.974 1.59049C20.986 2.55373 20.9778 3.51741 20.9771 4.48043C20.9771 4.73182 20.9685 4.98342 20.9771 5.23348C21.0055 5.96283 20.893 6.71943 21.0177 7.43018Z" fill="#050505"/>
<path d="M39.1338 9.31944C37.9333 9.32498 36.7231 9.23395 35.5344 9.34292C35.4436 9.62452 35.2962 9.88461 35.1014 10.1073C34.9065 10.3299 34.6682 10.5104 34.4011 10.6377C34.1341 10.7651 33.8438 10.8365 33.5481 10.8477C33.2525 10.8589 32.9576 10.8096 32.6817 10.7028C32.0411 11.2858 31.4604 11.9472 30.8704 12.5855C30.8173 12.6465 30.7756 12.7165 30.7474 12.7923C31.1143 13.4067 31.2776 14.1214 31.2139 14.8341C31.1503 15.5469 30.863 16.2212 30.3931 16.7609C30.4033 16.7782 30.4141 16.7957 30.4254 16.8134C31.0947 17.852 31.7404 18.9058 32.4035 19.9485L32.4137 19.9643C32.5151 19.9497 32.6173 19.9423 32.7198 19.9421C33.0356 19.9416 33.3476 20.0103 33.6341 20.1432C33.6533 20.1248 33.673 20.1058 33.693 20.0861C35.3101 18.4737 36.9213 16.8552 38.5265 15.2307C38.7373 15.0161 38.9473 14.7255 38.998 14.4413C39.2746 12.9179 39.501 11.3848 39.7449 9.85655C39.7692 9.39475 39.5006 9.31767 39.1338 9.31944Z" fill="#050505"/>
<path d="M2.79728 9.34615C3.05399 9.34615 3.31069 9.35169 3.56717 9.34615C3.31069 9.3508 3.05399 9.34482 2.79728 9.34505C2.21079 9.34505 1.62341 9.36719 1.03802 9.33862C1.62297 9.36897 2.21079 9.34615 2.79728 9.34615Z" fill="#050505"/>
<path d="M6.30906 20.0499C6.36044 20.101 6.41028 20.1464 6.45856 20.1863C6.67758 20.1144 6.90667 20.0778 7.13719 20.078C7.23192 20.078 7.32654 20.0841 7.42047 20.0964C7.47246 20.0315 7.52089 19.9638 7.56555 19.8937C8.21184 18.8904 8.87076 17.893 9.46102 16.8571C9.50627 16.7734 9.53811 16.6832 9.55537 16.5896C9.05679 16.0611 8.74097 15.3865 8.65437 14.6651C8.56778 13.9437 8.71497 13.2135 9.07431 12.582L9.06833 12.5745C8.55891 11.9924 7.97795 11.4737 7.44395 10.9134C7.40453 10.8719 7.36466 10.8316 7.32479 10.7918C7.04836 10.8903 6.75485 10.9317 6.46196 10.9137C6.16906 10.8957 5.88284 10.8186 5.62056 10.687C5.35827 10.5554 5.12536 10.372 4.93585 10.148C4.74635 9.92392 4.60417 9.66382 4.51791 9.38333C4.23881 9.34837 3.95739 9.33548 3.67626 9.34479C3.63964 9.34597 3.60273 9.34686 3.56552 9.34745C3.30904 9.3521 3.05234 9.34612 2.79563 9.34745C2.20914 9.34745 1.62176 9.3696 1.03637 9.34081C0.506359 9.31423 0.301928 9.52929 0.377676 10.0458C0.587422 11.4742 0.773692 12.9063 1.01533 14.3293C1.0676 14.6374 1.25675 14.9676 1.47824 15.1947C3.07493 16.8264 4.69022 18.4399 6.30906 20.0499Z" fill="#050505"/>
<path d="M26.9325 33.2947C26.44 33.17 25.9819 32.9359 25.5922 32.6099C25.5224 32.6326 25.4554 32.6636 25.3929 32.7022C24.5561 33.2176 23.7369 33.7614 22.901 34.2785C22.6319 34.4451 22.3563 34.6021 22.1258 34.7981C22.1311 34.8599 22.134 34.9222 22.134 34.9853C22.1341 35.3768 22.0284 35.7611 21.8279 36.0975C21.6275 36.4338 21.3398 36.7097 20.9953 36.8958C20.9459 37.0207 20.9179 37.153 20.9125 37.2872C20.8801 39.5043 20.8948 41.722 20.8976 43.9397C20.8976 44.1404 20.9224 44.3413 20.9433 44.6551C21.1625 44.5566 21.2715 44.5351 21.343 44.4715C23.1253 42.8917 24.9127 41.3176 26.6695 39.7096C26.8667 39.5291 26.9688 39.1559 26.9734 38.8679C27.0007 37.1111 26.9929 35.3534 26.9849 33.5966C26.984 33.4938 26.9663 33.3918 26.9325 33.2947Z" fill="#050505"/>
<path d="M17.7897 34.9852C17.7897 34.9112 17.7934 34.8373 17.8008 34.7637C17.7721 34.7379 17.7418 34.714 17.71 34.6922C16.7434 34.0306 15.7419 33.42 14.7552 32.7874C14.6728 32.7347 14.5932 32.6831 14.5133 32.6399C14.0973 33.0003 13.5997 33.2538 13.0637 33.3783C13.038 33.4846 13.027 33.594 13.0311 33.7032C13.0712 35.3768 13.0612 37.0523 13.0364 38.7265C13.0287 39.2532 13.1895 39.6617 13.574 40.0014C15.2034 41.4415 16.833 42.8812 18.4628 44.3204C18.597 44.4387 18.7638 44.5197 19.0608 44.7124C19.0814 44.2956 19.1038 44.0522 19.1051 43.8087C19.108 41.7992 19.0985 39.7897 19.1113 37.7801C19.1131 37.5013 19.1189 37.2264 19.0774 36.9677C18.6943 36.7969 18.3687 36.5188 18.1402 36.167C17.9117 35.8152 17.79 35.4047 17.7897 34.9852Z" fill="#050505"/>
<path d="M0.7963 7.51883C1.99011 7.49779 3.18834 7.56313 4.37816 7.49669C4.53921 7.48771 4.6996 7.46951 4.85857 7.4422C5.06071 7.17286 5.32282 6.95431 5.62411 6.80388C5.9254 6.65344 6.25759 6.57526 6.59435 6.57553C6.6481 6.57553 6.70133 6.57745 6.75404 6.58129C6.82152 6.52562 6.8873 6.46766 6.95138 6.40742C8.45926 4.98437 9.89448 3.48381 11.3572 2.01359C11.4958 1.87294 11.6183 1.71591 11.8092 1.49686C11.5999 1.45677 11.5027 1.41469 11.4106 1.42422C7.75892 1.79919 4.14583 2.39499 0.594748 3.33829C0.157314 3.45435 -0.020317 3.72257 0.00183152 4.16443C0.0461286 5.06367 0.0970704 5.96312 0.110581 6.86302C0.118112 7.34829 0.314569 7.52659 0.7963 7.51883Z" fill="#050505"/>
<path d="M39.1711 3.27786C35.979 2.69801 32.7896 2.10399 29.5967 1.52812C29.1759 1.45237 28.7422 1.45614 28.1683 1.41162C28.3134 1.63754 28.3469 1.71661 28.4031 1.77309C29.9898 3.36778 31.532 5.01098 33.1923 6.52417C33.2837 6.51263 33.3757 6.50686 33.4678 6.5069C33.8207 6.50666 34.1683 6.59252 34.4804 6.75701C34.7926 6.92151 35.0599 7.15968 35.2592 7.45087C35.31 7.4584 35.3604 7.46497 35.4105 7.47058C36.6729 7.61167 37.9629 7.50314 39.2411 7.51488C39.6495 7.51886 39.8661 7.38309 39.8774 6.94367C39.8995 6.06459 39.9272 5.18441 39.9948 4.30799C40.0424 3.67764 39.7609 3.38528 39.1711 3.27786Z" fill="#050505"/>
<path d="M8.83537 29.1854C8.90254 29.1809 8.9686 29.166 9.03117 29.1411C9.16214 28.6825 9.38858 28.2567 9.69562 27.8917C9.68405 27.8585 9.66921 27.8266 9.65133 27.7963C8.95919 26.6468 8.23603 25.515 7.50447 24.3903C7.12168 24.4555 6.72843 24.4172 6.36537 24.2795C6.13702 24.4942 5.91863 24.7201 5.70091 24.9455C4.36159 26.3289 4.44265 25.8417 5.17665 27.6847C5.63469 28.8346 6.22539 29.5735 7.39395 29.1908C8.00037 29.1901 8.4192 29.2094 8.83537 29.1854Z" fill="#050505"/>
<path d="M32.1257 29.189C32.2222 29.1918 32.3188 29.1947 32.4152 29.1947C32.4978 29.1947 32.5804 29.1925 32.6632 29.1901C32.5804 29.1925 32.4975 29.1947 32.4152 29.1947C32.3188 29.1947 32.2222 29.1916 32.1257 29.189Z" fill="#050505"/>
<path d="M35.0754 25.7249C34.605 25.2771 34.1611 24.8015 33.6976 24.3466C33.6277 24.2773 33.5542 24.2117 33.4774 24.1501C33.2352 24.2402 32.9788 24.2862 32.7204 24.2859C32.6647 24.2859 32.6096 24.2838 32.5551 24.2797C32.5093 24.3395 32.4623 24.4071 32.4136 24.4837C31.7934 25.4556 31.1875 26.4352 30.5684 27.4073C30.4827 27.542 30.4001 27.6687 30.3445 27.8C30.6839 28.1957 30.9273 28.6646 31.0557 29.1699C31.1939 29.2118 31.3514 29.2226 31.5356 29.2013C31.6446 29.1897 31.7542 29.1842 31.8639 29.185C31.9188 29.185 31.9746 29.185 32.0291 29.1872L32.1257 29.1898C32.2222 29.1927 32.3188 29.1956 32.4152 29.1956C32.4978 29.1956 32.5804 29.1934 32.6632 29.1909L32.7461 29.1885C32.929 29.1796 33.1124 29.184 33.2947 29.2016C33.8588 29.268 34.1939 29.0465 34.4048 28.5161C34.6522 27.8946 34.9647 27.2979 35.2486 26.6917C35.4181 26.3285 35.3811 26.0157 35.0754 25.7249Z" fill="#050505"/>
<path d="M31.0101 31.0033C30.8526 31.5129 30.5774 31.9783 30.2068 32.362C29.8362 32.7456 29.3806 33.0367 28.8767 33.2117C28.7994 33.3457 28.7438 33.4855 28.7365 33.6199C28.6838 34.5584 28.713 35.5026 28.7206 36.4432C28.7221 36.6381 28.7649 36.8328 28.7899 37.0275L28.96 37.078C30.4831 35.229 31.8393 33.2673 33.0623 30.9889C32.2608 30.9887 31.632 30.9685 31.0101 31.0033Z" fill="#050505"/>
<path d="M11.2385 33.298C10.7118 33.1249 10.2353 32.8257 9.85072 32.4263C9.46611 32.027 9.18499 31.5396 9.03184 31.0068C9.01735 31.0028 9.00252 31.0003 8.98754 30.9992C8.36982 30.9629 7.74855 30.9837 6.91333 30.9837C8.18067 33.259 9.51291 35.2338 11.1072 37.1785C11.2026 36.9333 11.2567 36.8586 11.2573 36.7833C11.266 35.6537 11.2835 34.5242 11.2549 33.3973C11.2537 33.3636 11.2482 33.3303 11.2385 33.298Z" fill="#050505"/>
<path d="M37.7179 18.5521C36.7401 19.5267 35.7607 20.4992 34.801 21.491C34.9377 21.9496 34.9197 22.4404 34.7498 22.8877C35.0564 23.4341 35.6885 23.7415 36.0714 24.2335L36.312 24.2131L38.1474 18.5063L37.9702 18.415C37.8847 18.46 37.7828 18.4875 37.7179 18.5521Z" fill="#050505"/>
<path d="M5.09513 22.9894C4.9187 22.5004 4.92286 21.9645 5.10687 21.4784C4.19723 20.4571 3.19146 19.5207 2.21737 18.5568C2.18814 18.5278 2.11039 18.5477 1.90375 18.5366L3.68582 24.1032L3.9598 24.1519C4.33544 23.7626 4.77774 23.4124 5.09513 22.9894Z" fill="#050505"/>
</svg>
