<svg width="41" height="31" viewBox="0 0 41 31" fill="none" xmlns="http://www.w3.org/2000/svg">
<path d="M38.2939 23.7058H1.82354C0.820606 23.7058 0 22.8852 0 21.8823V1.82354C0 0.820606 0.820606 0 1.82354 0H38.294C39.2969 0 40.1175 0.820606 40.1175 1.82354V21.8823C40.1175 22.8852 39.2969 23.7058 38.2939 23.7058Z" fill="#0E9347"/>
<path d="M33.735 16.4117C31.6379 16.4117 29.7233 17.4147 28.6291 19.0558C27.7174 18.6 26.7145 18.2353 25.5292 18.2353C22.3381 18.2353 19.6939 20.6059 19.238 23.7058H38.2938C39.2056 23.7058 39.935 23.0676 40.1174 22.1558C39.7526 18.9647 37.0174 16.4117 33.735 16.4117Z" fill="#0D8944"/>
<path d="M34.6471 21.8823H5.47074C5.47074 19.8764 3.8296 18.2353 1.82373 18.2353V5.47062C3.8296 5.47062 5.47074 3.82948 5.47074 1.82361H34.6471C34.6471 3.82948 36.2882 5.47062 38.2941 5.47062V18.2353C36.2882 18.2353 34.6471 19.8764 34.6471 21.8823Z" fill="#3BB54A"/>
<path d="M33.7351 16.4117C31.638 16.4117 29.7233 17.4147 28.6292 19.0558C27.7174 18.6 26.7145 18.2353 25.5292 18.2353C22.9763 18.2353 20.7881 19.6941 19.7852 21.8823H34.6469C34.6469 19.8764 36.1969 18.3264 38.2028 18.2353C37.0174 17.1411 35.4675 16.4117 33.7351 16.4117Z" fill="#0E9347"/>
<path d="M20.0587 20.0587C24.0872 20.0587 27.3528 16.3849 27.3528 11.8529C27.3528 7.32097 24.0872 3.64709 20.0587 3.64709C16.0303 3.64709 12.7646 7.32097 12.7646 11.8529C12.7646 16.3849 16.0303 20.0587 20.0587 20.0587Z" fill="#0E9347"/>
<path d="M9.11749 13.6765C10.1246 13.6765 10.941 12.8601 10.941 11.853C10.941 10.8458 10.1246 10.0294 9.11749 10.0294C8.11037 10.0294 7.29395 10.8458 7.29395 11.853C7.29395 12.8601 8.11037 13.6765 9.11749 13.6765Z" fill="#0E9347"/>
<path d="M30.9998 13.6765C32.0069 13.6765 32.8234 12.8601 32.8234 11.853C32.8234 10.8458 32.0069 10.0294 30.9998 10.0294C29.9927 10.0294 29.1763 10.8458 29.1763 11.853C29.1763 12.8601 29.9927 13.6765 30.9998 13.6765Z" fill="#0E9347"/>
<path d="M20.9704 10.9412H19.1468C18.5997 10.9412 18.2351 10.5765 18.2351 10.0295C18.2351 9.48243 18.5998 9.11776 19.1468 9.11776H21.8821C22.4292 9.11776 22.7938 8.75303 22.7938 8.20603C22.7938 7.65896 22.4291 7.2943 21.8821 7.2943H20.9704C20.9704 6.74723 20.6056 6.38257 20.0586 6.38257C19.5116 6.38257 19.1469 6.74731 19.1469 7.2943C17.5969 7.2943 16.4116 8.47957 16.4116 10.0296C16.4116 11.5796 17.5969 12.7649 19.1469 12.7649H20.9704C21.5175 12.7649 21.8822 13.1296 21.8822 13.6766C21.8822 14.2237 21.5174 14.5883 20.9704 14.5883H18.2352C17.6881 14.5883 17.3234 14.9531 17.3234 15.5C17.3234 16.0471 17.6882 16.4118 18.2352 16.4118H19.1469C19.1469 16.9589 19.5116 17.3235 20.0586 17.3235C20.6057 17.3235 20.9704 16.9588 20.9704 16.4118C22.5204 16.4118 23.7056 15.2265 23.7056 13.6765C23.7056 12.1265 22.5204 10.9412 20.9704 10.9412Z" fill="#89C763"/>
<path d="M23.7058 31C27.2307 31 30.0882 28.1425 30.0882 24.6176C30.0882 21.0927 27.2307 18.2352 23.7058 18.2352C20.181 18.2352 17.3235 21.0927 17.3235 24.6176C17.3235 28.1425 20.181 31 23.7058 31Z" fill="#FFCA5D"/>
<path d="M31.9117 29.1765C35.4365 29.1765 38.294 26.319 38.294 22.7941C38.294 19.2692 35.4365 16.4117 31.9117 16.4117C28.3868 16.4117 25.5293 19.2692 25.5293 22.7941C25.5293 26.319 28.3868 29.1765 31.9117 29.1765Z" fill="#F6B545"/>
<path d="M31.9117 16.4117C28.3558 16.4117 25.5293 19.2382 25.5293 22.7941C25.5293 26.35 28.3558 29.1765 31.9117 29.1765C35.4675 29.1765 38.294 26.35 38.294 22.7941C38.294 19.2382 35.4675 16.4117 31.9117 16.4117ZM31.9117 27.3529C29.3587 27.3529 27.3528 25.347 27.3528 22.7941C27.3528 20.2412 29.3587 18.2353 31.9117 18.2353C34.4646 18.2353 36.4705 20.2412 36.4705 22.7941C36.4705 25.347 34.4646 27.3529 31.9117 27.3529Z" fill="#FFCB5B"/>
<path d="M31.9116 29.0852C35.4675 29.1764 38.294 26.2587 38.294 22.7941H38.2028C37.7469 22.7941 37.3822 23.1588 37.291 23.6147C37.1087 24.8911 36.4704 26.0764 35.5587 26.897C34.8293 27.6264 33.8264 28.0823 32.7322 28.2646C32.2763 28.2646 31.9116 28.6294 31.9116 29.0852Z" fill="#F6B545"/>
<path d="M31.9117 16.5029C28.3558 16.4117 25.5293 19.3294 25.5293 22.7941H25.6205C26.0764 22.7941 26.4411 22.4294 26.5322 21.9735C26.7146 20.697 27.3528 19.5117 28.2646 18.6911C28.994 17.9617 29.9969 17.5059 31.0911 17.3235C31.5469 17.3235 31.9117 16.9588 31.9117 16.5029Z" fill="#FFE27A"/>
<path d="M27.9912 23.4322C27.9912 20.8793 29.9971 18.8734 32.55 18.8734C33.6442 18.8734 34.6471 19.2382 35.4676 19.9676C34.5559 18.8734 33.3706 18.2352 31.9118 18.2352C29.3589 18.2352 27.353 20.2411 27.353 22.794C27.353 24.2529 27.9912 25.4381 28.9942 26.2587C28.356 25.5293 27.9912 24.5264 27.9912 23.4322Z" fill="#F19920"/>
<path d="M34.6469 25.6206C34.5557 25.6206 34.4645 25.6206 34.3733 25.5294C34.191 25.3471 34.191 25.0735 34.3733 24.8912C34.9204 24.3441 35.1939 23.5235 35.1939 22.7941C35.1939 22.5206 35.3763 22.3383 35.6498 22.3383C35.9233 22.3383 36.1057 22.5206 36.1057 22.7941C36.1057 23.7971 35.7409 24.8 35.1027 25.5294C34.9204 25.6206 34.738 25.6206 34.6469 25.6206Z" fill="#FFCB5B"/>
<path d="M31.9115 25.5293C31.3644 25.5293 30.9998 25.1646 30.9998 24.6176V20.9706C30.9998 20.4235 31.3645 20.0588 31.9115 20.0588C32.4585 20.0588 32.8232 20.4236 32.8232 20.9706V24.6176C32.8232 25.1646 32.4586 25.5293 31.9115 25.5293Z" fill="#F19920"/>
<path d="M35.2851 28.1734C34.6469 25.894 33.0057 24.0704 30.9086 23.2499C30.5438 21.1528 29.1762 19.3294 27.4439 18.2352C26.3498 19.4205 25.6204 20.9705 25.6204 22.7028C25.6204 26.2587 28.4468 29.0852 32.0027 29.0852C33.1881 29.1763 34.2821 28.8117 35.2851 28.1734Z" fill="#F19920"/>
<path d="M28.9938 26.2588C28.3556 25.4382 27.8996 24.4353 27.8996 23.3412C27.8996 22.0647 28.4467 20.8795 29.3584 20.0589C29.1761 19.7853 28.9937 19.603 28.8113 19.4207C27.8996 20.2413 27.3525 21.4265 27.3525 22.7942C27.3526 24.2529 27.9908 25.4382 28.9938 26.2588Z" fill="#E78825"/>
<path d="M30.9995 23.3412V24.6177C30.9995 25.1647 31.3643 25.5294 31.9112 25.5294C32.4582 25.5294 32.823 25.1646 32.823 24.6177V24.4353C32.276 23.9794 31.6378 23.6147 30.9995 23.3412Z" fill="#E78825"/>
<path d="M35.2851 28.1734C35.1028 27.5352 34.9204 26.9881 34.5557 26.4411C33.8263 26.9881 32.9146 27.3528 31.9117 27.3528C29.3587 27.3528 27.3528 25.3469 27.3528 22.794C27.3528 21.4263 27.8999 20.241 28.8116 19.4204C28.3558 18.9646 27.8999 18.5998 27.3528 18.3263C26.2587 19.5116 25.5293 21.0616 25.5293 22.7939C25.5293 26.3498 28.3558 29.1763 31.9117 29.1763C33.1881 29.1763 34.2822 28.8117 35.2851 28.1734Z" fill="#F6B545"/>
<path d="M27.3528 18.3264C26.2587 19.5117 25.5293 21.0617 25.5293 22.794H25.6205C26.0764 22.794 26.4411 22.4293 26.5322 21.9734C26.7146 20.697 27.3528 19.6028 28.1734 18.7823C27.8999 18.6911 27.6264 18.5087 27.3528 18.3264Z" fill="#FFCB5B"/>
<path d="M23.7058 31C27.2307 31 30.0882 28.1425 30.0882 24.6176C30.0882 21.0927 27.2307 18.2352 23.7058 18.2352C20.181 18.2352 17.3235 21.0927 17.3235 24.6176C17.3235 28.1425 20.181 31 23.7058 31Z" fill="#F6B545"/>
<path d="M23.7058 18.2352C20.15 18.2352 17.3235 21.0617 17.3235 24.6176C17.3235 28.1735 20.15 31 23.7058 31C27.2617 31 30.0882 28.1734 30.0882 24.6176C30.0882 21.0618 27.2617 18.2352 23.7058 18.2352ZM23.7058 29.1763C21.1529 29.1763 19.147 27.1705 19.147 24.6175C19.147 22.0646 21.1529 20.0587 23.7058 20.0587C26.2588 20.0587 28.2647 22.0646 28.2647 24.6175C28.2647 27.1705 26.2588 29.1763 23.7058 29.1763Z" fill="#FFCB5B"/>
<path d="M23.7056 30.9088C27.2614 31 30.0879 28.0824 30.0879 24.6177H29.9967C29.5409 24.6177 29.1761 24.9824 29.085 25.4383C28.9027 26.7148 28.2644 27.9 27.3527 28.7206C26.6233 29.45 25.6203 29.9059 24.5262 30.0883C24.0703 30.0882 23.7056 30.4529 23.7056 30.9088Z" fill="#F6B545"/>
<path d="M23.7058 18.3264C20.15 18.2352 17.3235 21.1529 17.3235 24.6176H17.4147C17.8706 24.6176 18.2353 24.2528 18.3264 23.797C18.5088 22.5205 19.147 21.3352 20.0588 20.5146C20.7882 19.7852 21.7911 19.3294 22.8852 19.1469C23.3412 19.1469 23.7058 18.7823 23.7058 18.3264Z" fill="#FFE27A"/>
<path d="M19.785 25.2559C19.785 22.7029 21.7909 20.697 24.3438 20.697C25.438 20.697 26.4409 21.0618 27.2614 21.7912C26.3497 20.697 25.1643 20.0588 23.7055 20.0588C21.1526 20.0588 19.1467 22.0647 19.1467 24.6177C19.1467 26.0765 19.7849 27.2617 20.7879 28.0823C20.1497 27.3529 19.785 26.35 19.785 25.2559Z" fill="#F19920"/>
<path d="M26.441 27.444C26.3498 27.444 26.2587 27.444 26.1675 27.3528C25.9852 27.1704 25.9852 26.8969 26.1675 26.7146C26.7146 26.1675 26.9881 25.3469 26.9881 24.6175C26.9881 24.344 27.1704 24.1616 27.444 24.1616C27.7175 24.1616 27.8998 24.344 27.8998 24.6175C27.8998 25.6204 27.5351 26.6234 26.8969 27.3528C26.7145 27.444 26.5322 27.444 26.441 27.444Z" fill="#FFCB5B"/>
<path d="M23.7059 27.3529C23.1589 27.3529 22.7942 26.9882 22.7942 26.4412V22.7942C22.7942 22.2471 23.1589 21.8824 23.7059 21.8824C24.253 21.8824 24.6177 22.2472 24.6177 22.7942V26.4412C24.6177 26.9882 24.253 27.3529 23.7059 27.3529Z" fill="#F19920"/>
</svg>
