<svg width="45" height="45" viewBox="0 0 45 45" fill="none" xmlns="http://www.w3.org/2000/svg">
<path d="M42 22.5002C42 33.2697 33.2696 42 22.4999 42C11.7306 42 3 33.2697 3 22.5002C3 11.7305 11.7306 3 22.4999 3C33.2696 3 42 11.7305 42 22.5002Z" fill="#08152D"/>
<path d="M22.4998 1.47901C10.9091 1.47901 1.47928 10.909 1.47928 22.5C1.47928 34.0909 10.9091 43.5205 22.4998 43.5205C34.0909 43.5205 43.521 34.0909 43.521 22.5C43.521 10.909 34.0909 1.47901 22.4998 1.47901ZM22.4998 45C10.0934 45 0 34.9064 0 22.5C0 10.0932 10.0934 0 22.4998 0C34.9064 0 45 10.0932 45 22.5C45 34.9064 34.9064 45 22.4998 45Z" fill="#08152D"/>
<path d="M28.6389 19.75H27.5555V18.25C27.5555 15.3551 25.2877 13 22.5 13C19.7123 13 17.4445 15.3551 17.4445 18.25V19.75H16.3611C16.1615 19.75 16 19.9177 16 20.125V29.5C16 30.3273 16.6478 31 17.4445 31H27.5556C28.3522 31 29 30.3273 29 29.5V20.125C29 19.9177 28.8385 19.75 28.6389 19.75ZM23.5812 27.5836C23.5925 27.6894 23.5597 27.7956 23.4913 27.8751C23.4229 27.9546 23.3249 28 23.2222 28H21.7778C21.6752 28 21.5771 27.9546 21.5087 27.8751C21.4403 27.7957 21.4075 27.6895 21.4188 27.5836L21.6466 25.4563C21.2767 25.1769 21.0556 24.7349 21.0556 24.25C21.0556 23.4227 21.7034 22.75 22.5 22.75C23.2967 22.75 23.9445 23.4227 23.9445 24.25C23.9445 24.7349 23.7234 25.1769 23.3535 25.4563L23.5812 27.5836ZM25.3889 19.75H19.6111V18.25C19.6111 16.5958 20.9071 15.25 22.5 15.25C24.0929 15.25 25.3889 16.5958 25.3889 18.25V19.75Z" fill="white"/>
</svg>
